{
    "exclude": [
        "node_modules/**",
        "assets/source/**",
        "gulpfile.js",
        "dist/**",
        "gulp/**"
    ],
    "commands": {
        "before": {
            "local": [
                "gulp --production"
            ],
            "remote": []
        },
        "after": {
            "local": [],
            "remote": []
        }
    },
    "host": {
        "name": "ftp.onefinity.io",
        "port": 22,
        "path": "/var/www/dev.onefinity.io/quaeropus"
    },
    "oldfiles": "delete"
}