{
    "2010": {
        "A": 12,
        "B": 3,
        "C": 99,
        "D": 8,
        "E": 6,
        "F": 57,
        "G": 223,
        "H": 37,
        "I": 78,
        "J": 74,
        "K": 58,
        "L": 11,
        "M": 119,
        "N": 79,
        "O": 68,
        "P": 38,
        "Q": 190,
        "R": 22,
        "S": 29
    },
    "2011": {
        "A": 13,
        "B": 4,
        "C": 137,
        "D": 7,
        "E": 6,
        "F": 60,
        "G": 251,
        "H": 43,
        "I": 87,
        "J": 89,
        "K": 79,
        "L": 11,
        "M": 135,
        "N": 85,
        "O": 47,
        "P": 34,
        "Q": 187,
        "R": 21,
        "S": 31
    },
    "2012": {
        "A": 12,
        "B": 1,
        "C": 103,
        "D": 5,
        "E": 4,
        "F": 45,
        "G": 200,
        "H": 34,
        "I": 76,
        "J": 77,
        "K": 72,
        "L": 8,
        "M": 122,
        "N": 73,
        "O": 44,
        "P": 31,
        "Q": 162,
        "R": 17,
        "S": 27
    },
    "2013": {
        "A": 10,
        "B": 4,
        "C": 83,
        "D": 5,
        "E": 3,
        "F": 32,
        "G": 172,
        "H": 31,
        "I": 71,
        "J": 70,
        "K": 66,
        "L": 5,
        "M": 110,
        "N": 60,
        "O": 50,
        "P": 27,
        "Q": 122,
        "R": 11,
        "S": 20
    },
    "2014": {
        "A": 9,
        "B": 4,
        "C": 95,
        "D": 5,
        "E": 4,
        "F": 39,
        "G": 204,
        "H": 40,
        "I": 84,
        "J": 84,
        "K": 57,
        "L": 9,
        "M": 128,
        "N": 71,
        "O": 55,
        "P": 32,
        "Q": 122,
        "R": 15,
        "S": 23
    }
}