"2010";"A";"total";"total";"inclusive";"1506"
"2010";"A";"total";"total";"exclusive";"1462"
"2010";"A";"total";"male";"inclusive";"1758"
"2010";"A";"total";"male";"exclusive";"1699"
"2010";"A";"total";"female";"inclusive";"990"
"2010";"A";"total";"female";"exclusive";"977"
"2010";"A";"parttime";"total";"inclusive";"667"
"2010";"A";"parttime";"total";"exclusive";"648"
"2010";"A";"parttime";"male";"inclusive";"608"
"2010";"A";"parttime";"male";"exclusive";"580"
"2010";"A";"parttime";"female";"inclusive";"731"
"2010";"A";"parttime";"female";"exclusive";"723"
"2010";"A";"fulltime";"total";"inclusive";"2444"
"2010";"A";"fulltime";"total";"exclusive";"2371"
"2010";"A";"fulltime";"male";"inclusive";"2557"
"2010";"A";"fulltime";"male";"exclusive";"2476"
"2010";"A";"fulltime";"female";"inclusive";"1854"
"2010";"A";"fulltime";"female";"exclusive";"1824"
"2010";"B";"total";"total";"inclusive";"5094"
"2010";"B";"total";"total";"exclusive";"5013"
"2010";"B";"total";"male";"inclusive";"5393"
"2010";"B";"total";"male";"exclusive";"5301"
"2010";"B";"total";"female";"inclusive";"3367"
"2010";"B";"total";"female";"exclusive";"3347"
"2010";"B";"parttime";"total";"inclusive";"3887"
"2010";"B";"parttime";"total";"exclusive";"3680"
"2010";"B";"parttime";"male";"inclusive";"4761"
"2010";"B";"parttime";"male";"exclusive";"4439"
"2010";"B";"parttime";"female";"inclusive";"2460"
"2010";"B";"parttime";"female";"exclusive";"2440"
"2010";"B";"fulltime";"total";"inclusive";"5360"
"2010";"B";"fulltime";"total";"exclusive";"5306"
"2010";"B";"fulltime";"male";"inclusive";"5488"
"2010";"B";"fulltime";"male";"exclusive";"5431"
"2010";"B";"fulltime";"female";"inclusive";"4156"
"2010";"B";"fulltime";"female";"exclusive";"4135"
"2010";"C";"total";"total";"inclusive";"2728"
"2010";"C";"total";"total";"exclusive";"2670"
"2010";"C";"total";"male";"inclusive";"3001"
"2010";"C";"total";"male";"exclusive";"2932"
"2010";"C";"total";"female";"inclusive";"1748"
"2010";"C";"total";"female";"exclusive";"1733"
"2010";"C";"parttime";"total";"inclusive";"1575"
"2010";"C";"parttime";"total";"exclusive";"1537"
"2010";"C";"parttime";"male";"inclusive";"1874"
"2010";"C";"parttime";"male";"exclusive";"1804"
"2010";"C";"parttime";"female";"inclusive";"1336"
"2010";"C";"parttime";"female";"exclusive";"1323"
"2010";"C";"fulltime";"total";"inclusive";"3121"
"2010";"C";"fulltime";"total";"exclusive";"3056"
"2010";"C";"fulltime";"male";"inclusive";"3192"
"2010";"C";"fulltime";"male";"exclusive";"3122"
"2010";"C";"fulltime";"female";"inclusive";"2505"
"2010";"C";"fulltime";"female";"exclusive";"2485"
"2010";"D";"total";"total";"inclusive";"3827"
"2010";"D";"total";"total";"exclusive";"3778"
"2010";"D";"total";"male";"inclusive";"4160"
"2010";"D";"total";"male";"exclusive";"4100"
"2010";"D";"total";"female";"inclusive";"2742"
"2010";"D";"total";"female";"exclusive";"2728"
"2010";"D";"parttime";"total";"inclusive";"2725"
"2010";"D";"parttime";"total";"exclusive";"2683"
"2010";"D";"parttime";"male";"inclusive";"3329"
"2010";"D";"parttime";"male";"exclusive";"3249"
"2010";"D";"parttime";"female";"inclusive";"2284"
"2010";"D";"parttime";"female";"exclusive";"2269"
"2010";"D";"fulltime";"total";"inclusive";"4136"
"2010";"D";"fulltime";"total";"exclusive";"4085"
"2010";"D";"fulltime";"male";"inclusive";"4274"
"2010";"D";"fulltime";"male";"exclusive";"4217"
"2010";"D";"fulltime";"female";"inclusive";"3277"
"2010";"D";"fulltime";"female";"exclusive";"3266"
"2010";"E";"total";"total";"inclusive";"2986"
"2010";"E";"total";"total";"exclusive";"2843"
"2010";"E";"total";"male";"inclusive";"3160"
"2010";"E";"total";"male";"exclusive";"2986"
"2010";"E";"total";"female";"inclusive";"2309"
"2010";"E";"total";"female";"exclusive";"2286"
"2010";"E";"parttime";"total";"inclusive";"2141"
"2010";"E";"parttime";"total";"exclusive";"2062"
"2010";"E";"parttime";"male";"inclusive";"2408"
"2010";"E";"parttime";"male";"exclusive";"2249"
"2010";"E";"parttime";"female";"inclusive";"1947"
"2010";"E";"parttime";"female";"exclusive";"1926"
"2010";"E";"fulltime";"total";"inclusive";"3235"
"2010";"E";"fulltime";"total";"exclusive";"3073"
"2010";"E";"fulltime";"male";"inclusive";"3263"
"2010";"E";"fulltime";"male";"exclusive";"3088"
"2010";"E";"fulltime";"female";"inclusive";"2959"
"2010";"E";"fulltime";"female";"exclusive";"2934"
"2010";"F";"total";"total";"inclusive";"2971"
"2010";"F";"total";"total";"exclusive";"2917"
"2010";"F";"total";"male";"inclusive";"3118"
"2010";"F";"total";"male";"exclusive";"3059"
"2010";"F";"total";"female";"inclusive";"1753"
"2010";"F";"total";"female";"exclusive";"1743"
"2010";"F";"parttime";"total";"inclusive";"1781"
"2010";"F";"parttime";"total";"exclusive";"1738"
"2010";"F";"parttime";"male";"inclusive";"2020"
"2010";"F";"parttime";"male";"exclusive";"1958"
"2010";"F";"parttime";"female";"inclusive";"1379"
"2010";"F";"parttime";"female";"exclusive";"1370"
"2010";"F";"fulltime";"total";"inclusive";"3284"
"2010";"F";"fulltime";"total";"exclusive";"3227"
"2010";"F";"fulltime";"male";"inclusive";"3306"
"2010";"F";"fulltime";"male";"exclusive";"3247"
"2010";"F";"fulltime";"female";"inclusive";"2717"
"2010";"F";"fulltime";"female";"exclusive";"2706"
"2010";"G";"total";"total";"inclusive";"1804"
"2010";"G";"total";"total";"exclusive";"1777"
"2010";"G";"total";"male";"inclusive";"2365"
"2010";"G";"total";"male";"exclusive";"2326"
"2010";"G";"total";"female";"inclusive";"1159"
"2010";"G";"total";"female";"exclusive";"1146"
"2010";"G";"parttime";"total";"inclusive";"821"
"2010";"G";"parttime";"total";"exclusive";"804"
"2010";"G";"parttime";"male";"inclusive";"775"
"2010";"G";"parttime";"male";"exclusive";"751"
"2010";"G";"parttime";"female";"inclusive";"842"
"2010";"G";"parttime";"female";"exclusive";"830"
"2010";"G";"fulltime";"total";"inclusive";"2946"
"2010";"G";"fulltime";"total";"exclusive";"2907"
"2010";"G";"fulltime";"male";"inclusive";"3126"
"2010";"G";"fulltime";"male";"exclusive";"3080"
"2010";"G";"fulltime";"female";"inclusive";"2301"
"2010";"G";"fulltime";"female";"exclusive";"2287"
"2010";"H";"total";"total";"inclusive";"2444"
"2010";"H";"total";"total";"exclusive";"2269"
"2010";"H";"total";"male";"inclusive";"2702"
"2010";"H";"total";"male";"exclusive";"2480"
"2010";"H";"total";"female";"inclusive";"1602"
"2010";"H";"total";"female";"exclusive";"1582"
"2010";"H";"parttime";"total";"inclusive";"1269"
"2010";"H";"parttime";"total";"exclusive";"1203"
"2010";"H";"parttime";"male";"inclusive";"1335"
"2010";"H";"parttime";"male";"exclusive";"1226"
"2010";"H";"parttime";"female";"inclusive";"1187"
"2010";"H";"parttime";"female";"exclusive";"1174"
"2010";"H";"fulltime";"total";"inclusive";"3162"
"2010";"H";"fulltime";"total";"exclusive";"2920"
"2010";"H";"fulltime";"male";"inclusive";"3224"
"2010";"H";"fulltime";"male";"exclusive";"2958"
"2010";"H";"fulltime";"female";"inclusive";"2645"
"2010";"H";"fulltime";"female";"exclusive";"2610"
"2010";"I";"total";"total";"inclusive";"955"
"2010";"I";"total";"total";"exclusive";"945"
"2010";"I";"total";"male";"inclusive";"1146"
"2010";"I";"total";"male";"exclusive";"1138"
"2010";"I";"total";"female";"inclusive";"779"
"2010";"I";"total";"female";"exclusive";"769"
"2010";"I";"parttime";"total";"inclusive";"532"
"2010";"I";"parttime";"total";"exclusive";"523"
"2010";"I";"parttime";"male";"inclusive";"476"
"2010";"I";"parttime";"male";"exclusive";"469"
"2010";"I";"parttime";"female";"inclusive";"571"
"2010";"I";"parttime";"female";"exclusive";"560"
"2010";"I";"fulltime";"total";"inclusive";"2195"
"2010";"I";"fulltime";"total";"exclusive";"2187"
"2010";"I";"fulltime";"male";"inclusive";"2325"
"2010";"I";"fulltime";"male";"exclusive";"2316"
"2010";"I";"fulltime";"female";"inclusive";"1917"
"2010";"I";"fulltime";"female";"exclusive";"1910"
"2010";"J";"total";"total";"inclusive";"3333"
"2010";"J";"total";"total";"exclusive";"3313"
"2010";"J";"total";"male";"inclusive";"3695"
"2010";"J";"total";"male";"exclusive";"3670"
"2010";"J";"total";"female";"inclusive";"2390"
"2010";"J";"total";"female";"exclusive";"2380"
"2010";"J";"parttime";"total";"inclusive";"2113"
"2010";"J";"parttime";"total";"exclusive";"2094"
"2010";"J";"parttime";"male";"inclusive";"2418"
"2010";"J";"parttime";"male";"exclusive";"2390"
"2010";"J";"parttime";"female";"inclusive";"1850"
"2010";"J";"parttime";"female";"exclusive";"1840"
"2010";"J";"fulltime";"total";"inclusive";"3873"
"2010";"J";"fulltime";"total";"exclusive";"3852"
"2010";"J";"fulltime";"male";"inclusive";"4006"
"2010";"J";"fulltime";"male";"exclusive";"3983"
"2010";"J";"fulltime";"female";"inclusive";"3181"
"2010";"J";"fulltime";"female";"exclusive";"3173"
"2010";"K";"total";"total";"inclusive";"3539"
"2010";"K";"total";"total";"exclusive";"3526"
"2010";"K";"total";"male";"inclusive";"4425"
"2010";"K";"total";"male";"exclusive";"4408"
"2010";"K";"total";"female";"inclusive";"2445"
"2010";"K";"total";"female";"exclusive";"2435"
"2010";"K";"parttime";"total";"inclusive";"2053"
"2010";"K";"parttime";"total";"exclusive";"2039"
"2010";"K";"parttime";"male";"inclusive";"2509"
"2010";"K";"parttime";"male";"exclusive";"2486"
"2010";"K";"parttime";"female";"inclusive";"1915"
"2010";"K";"parttime";"female";"exclusive";"1904"
"2010";"K";"fulltime";"total";"inclusive";"4378"
"2010";"K";"fulltime";"total";"exclusive";"4364"
"2010";"K";"fulltime";"male";"inclusive";"4768"
"2010";"K";"fulltime";"male";"exclusive";"4752"
"2010";"K";"fulltime";"female";"inclusive";"3307"
"2010";"K";"fulltime";"female";"exclusive";"3298"
"2010";"L";"total";"total";"inclusive";"2752"
"2010";"L";"total";"total";"exclusive";"2743"
"2010";"L";"total";"male";"inclusive";"3376"
"2010";"L";"total";"male";"exclusive";"3365"
"2010";"L";"total";"female";"inclusive";"2025"
"2010";"L";"total";"female";"exclusive";"2019"
"2010";"L";"parttime";"total";"inclusive";"1593"
"2010";"L";"parttime";"total";"exclusive";"1584"
"2010";"L";"parttime";"male";"inclusive";"1593"
"2010";"L";"parttime";"male";"exclusive";"1580"
"2010";"L";"parttime";"female";"inclusive";"1592"
"2010";"L";"parttime";"female";"exclusive";"1585"
"2010";"L";"fulltime";"total";"inclusive";"3608"
"2010";"L";"fulltime";"total";"exclusive";"3599"
"2010";"L";"fulltime";"male";"inclusive";"3871"
"2010";"L";"fulltime";"male";"exclusive";"3860"
"2010";"L";"fulltime";"female";"inclusive";"2891"
"2010";"L";"fulltime";"female";"exclusive";"2888"
"2010";"M";"total";"total";"inclusive";"3280"
"2010";"M";"total";"total";"exclusive";"3263"
"2010";"M";"total";"male";"inclusive";"4021"
"2010";"M";"total";"male";"exclusive";"3999"
"2010";"M";"total";"female";"inclusive";"2182"
"2010";"M";"total";"female";"exclusive";"2175"
"2010";"M";"parttime";"total";"inclusive";"1828"
"2010";"M";"parttime";"total";"exclusive";"1812"
"2010";"M";"parttime";"male";"inclusive";"2225"
"2010";"M";"parttime";"male";"exclusive";"2194"
"2010";"M";"parttime";"female";"inclusive";"1628"
"2010";"M";"parttime";"female";"exclusive";"1620"
"2010";"M";"fulltime";"total";"inclusive";"4155"
"2010";"M";"fulltime";"total";"exclusive";"4138"
"2010";"M";"fulltime";"male";"inclusive";"4501"
"2010";"M";"fulltime";"male";"exclusive";"4481"
"2010";"M";"fulltime";"female";"inclusive";"3088"
"2010";"M";"fulltime";"female";"exclusive";"3082"
"2010";"N";"total";"total";"inclusive";"1441"
"2010";"N";"total";"total";"exclusive";"1411"
"2010";"N";"total";"male";"inclusive";"1692"
"2010";"N";"total";"male";"exclusive";"1647"
"2010";"N";"total";"female";"inclusive";"1110"
"2010";"N";"total";"female";"exclusive";"1099"
"2010";"N";"parttime";"total";"inclusive";"868"
"2010";"N";"parttime";"total";"exclusive";"850"
"2010";"N";"parttime";"male";"inclusive";"916"
"2010";"N";"parttime";"male";"exclusive";"887"
"2010";"N";"parttime";"female";"inclusive";"825"
"2010";"N";"parttime";"female";"exclusive";"818"
"2010";"N";"fulltime";"total";"inclusive";"2422"
"2010";"N";"fulltime";"total";"exclusive";"2369"
"2010";"N";"fulltime";"male";"inclusive";"2524"
"2010";"N";"fulltime";"male";"exclusive";"2462"
"2010";"N";"fulltime";"female";"inclusive";"2126"
"2010";"N";"fulltime";"female";"exclusive";"2100"
"2010";"O";"total";"total";"inclusive";"2921"
"2010";"O";"total";"total";"exclusive";"2900"
"2010";"O";"total";"male";"inclusive";"3201"
"2010";"O";"total";"male";"exclusive";"3172"
"2010";"O";"total";"female";"inclusive";"2472"
"2010";"O";"total";"female";"exclusive";"2461"
"2010";"O";"parttime";"total";"inclusive";"2076"
"2010";"O";"parttime";"total";"exclusive";"2062"
"2010";"O";"parttime";"male";"inclusive";"2052"
"2010";"O";"parttime";"male";"exclusive";"2031"
"2010";"O";"parttime";"female";"inclusive";"2085"
"2010";"O";"parttime";"female";"exclusive";"2074"
"2010";"O";"fulltime";"total";"inclusive";"3312"
"2010";"O";"fulltime";"total";"exclusive";"3286"
"2010";"O";"fulltime";"male";"inclusive";"3393"
"2010";"O";"fulltime";"male";"exclusive";"3363"
"2010";"O";"fulltime";"female";"inclusive";"3039"
"2010";"O";"fulltime";"female";"exclusive";"3027"
"2010";"P";"total";"total";"inclusive";"2438"
"2010";"P";"total";"total";"exclusive";"2436"
"2010";"P";"total";"male";"inclusive";"2997"
"2010";"P";"total";"male";"exclusive";"2992"
"2010";"P";"total";"female";"inclusive";"2093"
"2010";"P";"total";"female";"exclusive";"2092"
"2010";"P";"parttime";"total";"inclusive";"1879"
"2010";"P";"parttime";"total";"exclusive";"1877"
"2010";"P";"parttime";"male";"inclusive";"2132"
"2010";"P";"parttime";"male";"exclusive";"2127"
"2010";"P";"parttime";"female";"inclusive";"1796"
"2010";"P";"parttime";"female";"exclusive";"1794"
"2010";"P";"fulltime";"total";"inclusive";"3327"
"2010";"P";"fulltime";"total";"exclusive";"3324"
"2010";"P";"fulltime";"male";"inclusive";"3569"
"2010";"P";"fulltime";"male";"exclusive";"3564"
"2010";"P";"fulltime";"female";"inclusive";"2972"
"2010";"P";"fulltime";"female";"exclusive";"2970"
"2010";"Q";"total";"total";"inclusive";"1815"
"2010";"Q";"total";"total";"exclusive";"1808"
"2010";"Q";"total";"male";"inclusive";"2945"
"2010";"Q";"total";"male";"exclusive";"2927"
"2010";"Q";"total";"female";"inclusive";"1597"
"2010";"Q";"total";"female";"exclusive";"1593"
"2010";"Q";"parttime";"total";"inclusive";"1387"
"2010";"Q";"parttime";"total";"exclusive";"1382"
"2010";"Q";"parttime";"male";"inclusive";"1701"
"2010";"Q";"parttime";"male";"exclusive";"1689"
"2010";"Q";"parttime";"female";"inclusive";"1358"
"2010";"Q";"parttime";"female";"exclusive";"1354"
"2010";"Q";"fulltime";"total";"inclusive";"3038"
"2010";"Q";"fulltime";"total";"exclusive";"3024"
"2010";"Q";"fulltime";"male";"inclusive";"3743"
"2010";"Q";"fulltime";"male";"exclusive";"3722"
"2010";"Q";"fulltime";"female";"inclusive";"2608"
"2010";"Q";"fulltime";"female";"exclusive";"2599"
"2010";"R";"total";"total";"inclusive";"1623"
"2010";"R";"total";"total";"exclusive";"1614"
"2010";"R";"total";"male";"inclusive";"2021"
"2010";"R";"total";"male";"exclusive";"2009"
"2010";"R";"total";"female";"inclusive";"1252"
"2010";"R";"total";"female";"exclusive";"1246"
"2010";"R";"parttime";"total";"inclusive";"914"
"2010";"R";"parttime";"total";"exclusive";"905"
"2010";"R";"parttime";"male";"inclusive";"886"
"2010";"R";"parttime";"male";"exclusive";"874"
"2010";"R";"parttime";"female";"inclusive";"931"
"2010";"R";"parttime";"female";"exclusive";"926"
"2010";"R";"fulltime";"total";"inclusive";"3102"
"2010";"R";"fulltime";"total";"exclusive";"3091"
"2010";"R";"fulltime";"male";"inclusive";"3402"
"2010";"R";"fulltime";"male";"exclusive";"3389"
"2010";"R";"fulltime";"female";"inclusive";"2488"
"2010";"R";"fulltime";"female";"exclusive";"2482"
"2010";"S";"total";"total";"inclusive";"1889"
"2010";"S";"total";"total";"exclusive";"1878"
"2010";"S";"total";"male";"inclusive";"2517"
"2010";"S";"total";"male";"exclusive";"2499"
"2010";"S";"total";"female";"inclusive";"1532"
"2010";"S";"total";"female";"exclusive";"1525"
"2010";"S";"parttime";"total";"inclusive";"1237"
"2010";"S";"parttime";"total";"exclusive";"1229"
"2010";"S";"parttime";"male";"inclusive";"1341"
"2010";"S";"parttime";"male";"exclusive";"1328"
"2010";"S";"parttime";"female";"inclusive";"1206"
"2010";"S";"parttime";"female";"exclusive";"1199"
"2010";"S";"fulltime";"total";"inclusive";"2821"
"2010";"S";"fulltime";"total";"exclusive";"2807"
"2010";"S";"fulltime";"male";"inclusive";"3217"
"2010";"S";"fulltime";"male";"exclusive";"3196"
"2010";"S";"fulltime";"female";"inclusive";"2334"
"2010";"S";"fulltime";"female";"exclusive";"2328"
"2011";"A";"total";"total";"inclusive";"1556"
"2011";"A";"total";"total";"exclusive";"1509"
"2011";"A";"total";"male";"inclusive";"1810"
"2011";"A";"total";"male";"exclusive";"1748"
"2011";"A";"total";"female";"inclusive";"1037"
"2011";"A";"total";"female";"exclusive";"1019"
"2011";"A";"parttime";"total";"inclusive";"729"
"2011";"A";"parttime";"total";"exclusive";"695"
"2011";"A";"parttime";"male";"inclusive";"702"
"2011";"A";"parttime";"male";"exclusive";"649"
"2011";"A";"parttime";"female";"inclusive";"759"
"2011";"A";"parttime";"female";"exclusive";"748"
"2011";"A";"fulltime";"total";"inclusive";"2519"
"2011";"A";"fulltime";"total";"exclusive";"2456"
"2011";"A";"fulltime";"male";"inclusive";"2635"
"2011";"A";"fulltime";"male";"exclusive";"2566"
"2011";"A";"fulltime";"female";"inclusive";"1941"
"2011";"A";"fulltime";"female";"exclusive";"1905"
"2011";"B";"total";"total";"inclusive";"5756"
"2011";"B";"total";"total";"exclusive";"5673"
"2011";"B";"total";"male";"inclusive";"6081"
"2011";"B";"total";"male";"exclusive";"5988"
"2011";"B";"total";"female";"inclusive";"3946"
"2011";"B";"total";"female";"exclusive";"3919"
"2011";"B";"parttime";"total";"inclusive";"4237"
"2011";"B";"parttime";"total";"exclusive";"4077"
"2011";"B";"parttime";"male";"inclusive";"5066"
"2011";"B";"parttime";"male";"exclusive";"4830"
"2011";"B";"parttime";"female";"inclusive";"2861"
"2011";"B";"parttime";"female";"exclusive";"2827"
"2011";"B";"fulltime";"total";"inclusive";"6124"
"2011";"B";"fulltime";"total";"exclusive";"6060"
"2011";"B";"fulltime";"male";"inclusive";"6251"
"2011";"B";"fulltime";"male";"exclusive";"6182"
"2011";"B";"fulltime";"female";"inclusive";"4956"
"2011";"B";"fulltime";"female";"exclusive";"4936"
"2011";"C";"total";"total";"inclusive";"2781"
"2011";"C";"total";"total";"exclusive";"2717"
"2011";"C";"total";"male";"inclusive";"3060"
"2011";"C";"total";"male";"exclusive";"2983"
"2011";"C";"total";"female";"inclusive";"1784"
"2011";"C";"total";"female";"exclusive";"1768"
"2011";"C";"parttime";"total";"inclusive";"1687"
"2011";"C";"parttime";"total";"exclusive";"1614"
"2011";"C";"parttime";"male";"inclusive";"2037"
"2011";"C";"parttime";"male";"exclusive";"1900"
"2011";"C";"parttime";"female";"inclusive";"1373"
"2011";"C";"parttime";"female";"exclusive";"1357"
"2011";"C";"fulltime";"total";"inclusive";"3193"
"2011";"C";"fulltime";"total";"exclusive";"3133"
"2011";"C";"fulltime";"male";"inclusive";"3263"
"2011";"C";"fulltime";"male";"exclusive";"3198"
"2011";"C";"fulltime";"female";"inclusive";"2582"
"2011";"C";"fulltime";"female";"exclusive";"2565"
"2011";"D";"total";"total";"inclusive";"3960"
"2011";"D";"total";"total";"exclusive";"3918"
"2011";"D";"total";"male";"inclusive";"4299"
"2011";"D";"total";"male";"exclusive";"4249"
"2011";"D";"total";"female";"inclusive";"2846"
"2011";"D";"total";"female";"exclusive";"2831"
"2011";"D";"parttime";"total";"inclusive";"2883"
"2011";"D";"parttime";"total";"exclusive";"2823"
"2011";"D";"parttime";"male";"inclusive";"3446"
"2011";"D";"parttime";"male";"exclusive";"3337"
"2011";"D";"parttime";"female";"inclusive";"2391"
"2011";"D";"parttime";"female";"exclusive";"2373"
"2011";"D";"fulltime";"total";"inclusive";"4322"
"2011";"D";"fulltime";"total";"exclusive";"4287"
"2011";"D";"fulltime";"male";"inclusive";"4454"
"2011";"D";"fulltime";"male";"exclusive";"4415"
"2011";"D";"fulltime";"female";"inclusive";"3462"
"2011";"D";"fulltime";"female";"exclusive";"3451"
"2011";"E";"total";"total";"inclusive";"3017"
"2011";"E";"total";"total";"exclusive";"2883"
"2011";"E";"total";"male";"inclusive";"3185"
"2011";"E";"total";"male";"exclusive";"3022"
"2011";"E";"total";"female";"inclusive";"2353"
"2011";"E";"total";"female";"exclusive";"2331"
"2011";"E";"parttime";"total";"inclusive";"2272"
"2011";"E";"parttime";"total";"exclusive";"2124"
"2011";"E";"parttime";"male";"inclusive";"2542"
"2011";"E";"parttime";"male";"exclusive";"2279"
"2011";"E";"parttime";"female";"inclusive";"1979"
"2011";"E";"parttime";"female";"exclusive";"1958"
"2011";"E";"fulltime";"total";"inclusive";"3297"
"2011";"E";"fulltime";"total";"exclusive";"3167"
"2011";"E";"fulltime";"male";"inclusive";"3324"
"2011";"E";"fulltime";"male";"exclusive";"3183"
"2011";"E";"fulltime";"female";"inclusive";"3044"
"2011";"E";"fulltime";"female";"exclusive";"3024"
"2011";"F";"total";"total";"inclusive";"3017"
"2011";"F";"total";"total";"exclusive";"2957"
"2011";"F";"total";"male";"inclusive";"3165"
"2011";"F";"total";"male";"exclusive";"3100"
"2011";"F";"total";"female";"inclusive";"1783"
"2011";"F";"total";"female";"exclusive";"1773"
"2011";"F";"parttime";"total";"inclusive";"1825"
"2011";"F";"parttime";"total";"exclusive";"1754"
"2011";"F";"parttime";"male";"inclusive";"2064"
"2011";"F";"parttime";"male";"exclusive";"1958"
"2011";"F";"parttime";"female";"inclusive";"1413"
"2011";"F";"parttime";"female";"exclusive";"1402"
"2011";"F";"fulltime";"total";"inclusive";"3341"
"2011";"F";"fulltime";"total";"exclusive";"3284"
"2011";"F";"fulltime";"male";"inclusive";"3362"
"2011";"F";"fulltime";"male";"exclusive";"3304"
"2011";"F";"fulltime";"female";"inclusive";"2777"
"2011";"F";"fulltime";"female";"exclusive";"2768"
"2011";"G";"total";"total";"inclusive";"1819"
"2011";"G";"total";"total";"exclusive";"1792"
"2011";"G";"total";"male";"inclusive";"2380"
"2011";"G";"total";"male";"exclusive";"2341"
"2011";"G";"total";"female";"inclusive";"1174"
"2011";"G";"total";"female";"exclusive";"1162"
"2011";"G";"parttime";"total";"inclusive";"847"
"2011";"G";"parttime";"total";"exclusive";"826"
"2011";"G";"parttime";"male";"inclusive";"821"
"2011";"G";"parttime";"male";"exclusive";"784"
"2011";"G";"parttime";"female";"inclusive";"860"
"2011";"G";"parttime";"female";"exclusive";"847"
"2011";"G";"fulltime";"total";"inclusive";"3017"
"2011";"G";"fulltime";"total";"exclusive";"2983"
"2011";"G";"fulltime";"male";"inclusive";"3191"
"2011";"G";"fulltime";"male";"exclusive";"3151"
"2011";"G";"fulltime";"female";"inclusive";"2382"
"2011";"G";"fulltime";"female";"exclusive";"2370"
"2011";"H";"total";"total";"inclusive";"2473"
"2011";"H";"total";"total";"exclusive";"2300"
"2011";"H";"total";"male";"inclusive";"2728"
"2011";"H";"total";"male";"exclusive";"2508"
"2011";"H";"total";"female";"inclusive";"1641"
"2011";"H";"total";"female";"exclusive";"1622"
"2011";"H";"parttime";"total";"inclusive";"1352"
"2011";"H";"parttime";"total";"exclusive";"1263"
"2011";"H";"parttime";"male";"inclusive";"1451"
"2011";"H";"parttime";"male";"exclusive";"1308"
"2011";"H";"parttime";"female";"inclusive";"1215"
"2011";"H";"parttime";"female";"exclusive";"1201"
"2011";"H";"fulltime";"total";"inclusive";"3223"
"2011";"H";"fulltime";"total";"exclusive";"2994"
"2011";"H";"fulltime";"male";"inclusive";"3286"
"2011";"H";"fulltime";"male";"exclusive";"3032"
"2011";"H";"fulltime";"female";"inclusive";"2721"
"2011";"H";"fulltime";"female";"exclusive";"2690"
"2011";"I";"total";"total";"inclusive";"958"
"2011";"I";"total";"total";"exclusive";"947"
"2011";"I";"total";"male";"inclusive";"1147"
"2011";"I";"total";"male";"exclusive";"1136"
"2011";"I";"total";"female";"inclusive";"782"
"2011";"I";"total";"female";"exclusive";"771"
"2011";"I";"parttime";"total";"inclusive";"541"
"2011";"I";"parttime";"total";"exclusive";"529"
"2011";"I";"parttime";"male";"inclusive";"490"
"2011";"I";"parttime";"male";"exclusive";"479"
"2011";"I";"parttime";"female";"inclusive";"577"
"2011";"I";"parttime";"female";"exclusive";"565"
"2011";"I";"fulltime";"total";"inclusive";"2232"
"2011";"I";"fulltime";"total";"exclusive";"2224"
"2011";"I";"fulltime";"male";"inclusive";"2348"
"2011";"I";"fulltime";"male";"exclusive";"2339"
"2011";"I";"fulltime";"female";"inclusive";"1973"
"2011";"I";"fulltime";"female";"exclusive";"1967"
"2011";"J";"total";"total";"inclusive";"3397"
"2011";"J";"total";"total";"exclusive";"3376"
"2011";"J";"total";"male";"inclusive";"3767"
"2011";"J";"total";"male";"exclusive";"3742"
"2011";"J";"total";"female";"inclusive";"2424"
"2011";"J";"total";"female";"exclusive";"2415"
"2011";"J";"parttime";"total";"inclusive";"2146"
"2011";"J";"parttime";"total";"exclusive";"2117"
"2011";"J";"parttime";"male";"inclusive";"2445"
"2011";"J";"parttime";"male";"exclusive";"2395"
"2011";"J";"parttime";"female";"inclusive";"1878"
"2011";"J";"parttime";"female";"exclusive";"1867"
"2011";"J";"fulltime";"total";"inclusive";"3979"
"2011";"J";"fulltime";"total";"exclusive";"3963"
"2011";"J";"fulltime";"male";"inclusive";"4113"
"2011";"J";"fulltime";"male";"exclusive";"4095"
"2011";"J";"fulltime";"female";"inclusive";"3269"
"2011";"J";"fulltime";"female";"exclusive";"3262"
"2011";"K";"total";"total";"inclusive";"3670"
"2011";"K";"total";"total";"exclusive";"3657"
"2011";"K";"total";"male";"inclusive";"4561"
"2011";"K";"total";"male";"exclusive";"4545"
"2011";"K";"total";"female";"inclusive";"2558"
"2011";"K";"total";"female";"exclusive";"2548"
"2011";"K";"parttime";"total";"inclusive";"2119"
"2011";"K";"parttime";"total";"exclusive";"2102"
"2011";"K";"parttime";"male";"inclusive";"2527"
"2011";"K";"parttime";"male";"exclusive";"2488"
"2011";"K";"parttime";"female";"inclusive";"2000"
"2011";"K";"parttime";"female";"exclusive";"1989"
"2011";"K";"fulltime";"total";"inclusive";"4522"
"2011";"K";"fulltime";"total";"exclusive";"4511"
"2011";"K";"fulltime";"male";"inclusive";"4904"
"2011";"K";"fulltime";"male";"exclusive";"4892"
"2011";"K";"fulltime";"female";"inclusive";"3455"
"2011";"K";"fulltime";"female";"exclusive";"3448"
"2011";"L";"total";"total";"inclusive";"2815"
"2011";"L";"total";"total";"exclusive";"2808"
"2011";"L";"total";"male";"inclusive";"3444"
"2011";"L";"total";"male";"exclusive";"3435"
"2011";"L";"total";"female";"inclusive";"2082"
"2011";"L";"total";"female";"exclusive";"2076"
"2011";"L";"parttime";"total";"inclusive";"1664"
"2011";"L";"parttime";"total";"exclusive";"1654"
"2011";"L";"parttime";"male";"inclusive";"1694"
"2011";"L";"parttime";"male";"exclusive";"1675"
"2011";"L";"parttime";"female";"inclusive";"1653"
"2011";"L";"parttime";"female";"exclusive";"1647"
"2011";"L";"fulltime";"total";"inclusive";"3668"
"2011";"L";"fulltime";"total";"exclusive";"3662"
"2011";"L";"fulltime";"male";"inclusive";"3920"
"2011";"L";"fulltime";"male";"exclusive";"3913"
"2011";"L";"fulltime";"female";"inclusive";"2962"
"2011";"L";"fulltime";"female";"exclusive";"2959"
"2011";"M";"total";"total";"inclusive";"3370"
"2011";"M";"total";"total";"exclusive";"3353"
"2011";"M";"total";"male";"inclusive";"4118"
"2011";"M";"total";"male";"exclusive";"4096"
"2011";"M";"total";"female";"inclusive";"2257"
"2011";"M";"total";"female";"exclusive";"2250"
"2011";"M";"parttime";"total";"inclusive";"1875"
"2011";"M";"parttime";"total";"exclusive";"1856"
"2011";"M";"parttime";"male";"inclusive";"2239"
"2011";"M";"parttime";"male";"exclusive";"2197"
"2011";"M";"parttime";"female";"inclusive";"1691"
"2011";"M";"parttime";"female";"exclusive";"1683"
"2011";"M";"fulltime";"total";"inclusive";"4282"
"2011";"M";"fulltime";"total";"exclusive";"4267"
"2011";"M";"fulltime";"male";"inclusive";"4627"
"2011";"M";"fulltime";"male";"exclusive";"4609"
"2011";"M";"fulltime";"female";"inclusive";"3203"
"2011";"M";"fulltime";"female";"exclusive";"3198"
"2011";"N";"total";"total";"inclusive";"1461"
"2011";"N";"total";"total";"exclusive";"1429"
"2011";"N";"total";"male";"inclusive";"1711"
"2011";"N";"total";"male";"exclusive";"1663"
"2011";"N";"total";"female";"inclusive";"1123"
"2011";"N";"total";"female";"exclusive";"1112"
"2011";"N";"parttime";"total";"inclusive";"902"
"2011";"N";"parttime";"total";"exclusive";"881"
"2011";"N";"parttime";"male";"inclusive";"965"
"2011";"N";"parttime";"male";"exclusive";"929"
"2011";"N";"parttime";"female";"inclusive";"845"
"2011";"N";"parttime";"female";"exclusive";"838"
"2011";"N";"fulltime";"total";"inclusive";"2459"
"2011";"N";"fulltime";"total";"exclusive";"2406"
"2011";"N";"fulltime";"male";"inclusive";"2557"
"2011";"N";"fulltime";"male";"exclusive";"2496"
"2011";"N";"fulltime";"female";"inclusive";"2164"
"2011";"N";"fulltime";"female";"exclusive";"2137"
"2011";"O";"total";"total";"inclusive";"2934"
"2011";"O";"total";"total";"exclusive";"2916"
"2011";"O";"total";"male";"inclusive";"3201"
"2011";"O";"total";"male";"exclusive";"3178"
"2011";"O";"total";"female";"inclusive";"2505"
"2011";"O";"total";"female";"exclusive";"2497"
"2011";"O";"parttime";"total";"inclusive";"2105"
"2011";"O";"parttime";"total";"exclusive";"2092"
"2011";"O";"parttime";"male";"inclusive";"2091"
"2011";"O";"parttime";"male";"exclusive";"2070"
"2011";"O";"parttime";"female";"inclusive";"2111"
"2011";"O";"parttime";"female";"exclusive";"2102"
"2011";"O";"fulltime";"total";"inclusive";"3348"
"2011";"O";"fulltime";"total";"exclusive";"3328"
"2011";"O";"fulltime";"male";"inclusive";"3411"
"2011";"O";"fulltime";"male";"exclusive";"3388"
"2011";"O";"fulltime";"female";"inclusive";"3131"
"2011";"O";"fulltime";"female";"exclusive";"3122"
"2011";"P";"total";"total";"inclusive";"2438"
"2011";"P";"total";"total";"exclusive";"2435"
"2011";"P";"total";"male";"inclusive";"2988"
"2011";"P";"total";"male";"exclusive";"2984"
"2011";"P";"total";"female";"inclusive";"2105"
"2011";"P";"total";"female";"exclusive";"2103"
"2011";"P";"parttime";"total";"inclusive";"1934"
"2011";"P";"parttime";"total";"exclusive";"1932"
"2011";"P";"parttime";"male";"inclusive";"2242"
"2011";"P";"parttime";"male";"exclusive";"2237"
"2011";"P";"parttime";"female";"inclusive";"1827"
"2011";"P";"parttime";"female";"exclusive";"1825"
"2011";"P";"fulltime";"total";"inclusive";"3373"
"2011";"P";"fulltime";"total";"exclusive";"3370"
"2011";"P";"fulltime";"male";"inclusive";"3588"
"2011";"P";"fulltime";"male";"exclusive";"3585"
"2011";"P";"fulltime";"female";"inclusive";"3054"
"2011";"P";"fulltime";"female";"exclusive";"3053"
"2011";"Q";"total";"total";"inclusive";"1828"
"2011";"Q";"total";"total";"exclusive";"1822"
"2011";"Q";"total";"male";"inclusive";"2948"
"2011";"Q";"total";"male";"exclusive";"2933"
"2011";"Q";"total";"female";"inclusive";"1617"
"2011";"Q";"total";"female";"exclusive";"1612"
"2011";"Q";"parttime";"total";"inclusive";"1409"
"2011";"Q";"parttime";"total";"exclusive";"1405"
"2011";"Q";"parttime";"male";"inclusive";"1711"
"2011";"Q";"parttime";"male";"exclusive";"1700"
"2011";"Q";"parttime";"female";"inclusive";"1381"
"2011";"Q";"parttime";"female";"exclusive";"1377"
"2011";"Q";"fulltime";"total";"inclusive";"3110"
"2011";"Q";"fulltime";"total";"exclusive";"3098"
"2011";"Q";"fulltime";"male";"inclusive";"3808"
"2011";"Q";"fulltime";"male";"exclusive";"3790"
"2011";"Q";"fulltime";"female";"inclusive";"2681"
"2011";"Q";"fulltime";"female";"exclusive";"2673"
"2011";"R";"total";"total";"inclusive";"1617"
"2011";"R";"total";"total";"exclusive";"1609"
"2011";"R";"total";"male";"inclusive";"2022"
"2011";"R";"total";"male";"exclusive";"2011"
"2011";"R";"total";"female";"inclusive";"1244"
"2011";"R";"total";"female";"exclusive";"1239"
"2011";"R";"parttime";"total";"inclusive";"920"
"2011";"R";"parttime";"total";"exclusive";"913"
"2011";"R";"parttime";"male";"inclusive";"906"
"2011";"R";"parttime";"male";"exclusive";"894"
"2011";"R";"parttime";"female";"inclusive";"930"
"2011";"R";"parttime";"female";"exclusive";"925"
"2011";"R";"fulltime";"total";"inclusive";"3153"
"2011";"R";"fulltime";"total";"exclusive";"3145"
"2011";"R";"fulltime";"male";"inclusive";"3471"
"2011";"R";"fulltime";"male";"exclusive";"3461"
"2011";"R";"fulltime";"female";"inclusive";"2513"
"2011";"R";"fulltime";"female";"exclusive";"2508"
"2011";"S";"total";"total";"inclusive";"1909"
"2011";"S";"total";"total";"exclusive";"1898"
"2011";"S";"total";"male";"inclusive";"2559"
"2011";"S";"total";"male";"exclusive";"2540"
"2011";"S";"total";"female";"inclusive";"1545"
"2011";"S";"total";"female";"exclusive";"1538"
"2011";"S";"parttime";"total";"inclusive";"1261"
"2011";"S";"parttime";"total";"exclusive";"1252"
"2011";"S";"parttime";"male";"inclusive";"1376"
"2011";"S";"parttime";"male";"exclusive";"1357"
"2011";"S";"parttime";"female";"inclusive";"1227"
"2011";"S";"parttime";"female";"exclusive";"1220"
"2011";"S";"fulltime";"total";"inclusive";"2911"
"2011";"S";"fulltime";"total";"exclusive";"2898"
"2011";"S";"fulltime";"male";"inclusive";"3301"
"2011";"S";"fulltime";"male";"exclusive";"3281"
"2011";"S";"fulltime";"female";"inclusive";"2410"
"2011";"S";"fulltime";"female";"exclusive";"2405"
"2012";"A";"total";"total";"inclusive";"1595"
"2012";"A";"total";"total";"exclusive";"1547"
"2012";"A";"total";"male";"inclusive";"1851"
"2012";"A";"total";"male";"exclusive";"1788"
"2012";"A";"total";"female";"inclusive";"1070"
"2012";"A";"total";"female";"exclusive";"1051"
"2012";"A";"parttime";"total";"inclusive";"744"
"2012";"A";"parttime";"total";"exclusive";"711"
"2012";"A";"parttime";"male";"inclusive";"712"
"2012";"A";"parttime";"male";"exclusive";"662"
"2012";"A";"parttime";"female";"inclusive";"782"
"2012";"A";"parttime";"female";"exclusive";"768"
"2012";"A";"fulltime";"total";"inclusive";"2595"
"2012";"A";"fulltime";"total";"exclusive";"2528"
"2012";"A";"fulltime";"male";"inclusive";"2711"
"2012";"A";"fulltime";"male";"exclusive";"2638"
"2012";"A";"fulltime";"female";"inclusive";"2016"
"2012";"A";"fulltime";"female";"exclusive";"1979"
"2012";"B";"total";"total";"inclusive";"5244"
"2012";"B";"total";"total";"exclusive";"5174"
"2012";"B";"total";"male";"inclusive";"5535"
"2012";"B";"total";"male";"exclusive";"5457"
"2012";"B";"total";"female";"inclusive";"3529"
"2012";"B";"total";"female";"exclusive";"3502"
"2012";"B";"parttime";"total";"inclusive";"4203"
"2012";"B";"parttime";"total";"exclusive";"4051"
"2012";"B";"parttime";"male";"inclusive";"5139"
"2012";"B";"parttime";"male";"exclusive";"4912"
"2012";"B";"parttime";"female";"inclusive";"2710"
"2012";"B";"parttime";"female";"exclusive";"2679"
"2012";"B";"fulltime";"total";"inclusive";"5486"
"2012";"B";"fulltime";"total";"exclusive";"5435"
"2012";"B";"fulltime";"male";"inclusive";"5597"
"2012";"B";"fulltime";"male";"exclusive";"5543"
"2012";"B";"fulltime";"female";"inclusive";"4351"
"2012";"B";"fulltime";"female";"exclusive";"4328"
"2012";"C";"total";"total";"inclusive";"2842"
"2012";"C";"total";"total";"exclusive";"2780"
"2012";"C";"total";"male";"inclusive";"3125"
"2012";"C";"total";"male";"exclusive";"3049"
"2012";"C";"total";"female";"inclusive";"1839"
"2012";"C";"total";"female";"exclusive";"1822"
"2012";"C";"parttime";"total";"inclusive";"1724"
"2012";"C";"parttime";"total";"exclusive";"1658"
"2012";"C";"parttime";"male";"inclusive";"2062"
"2012";"C";"parttime";"male";"exclusive";"1938"
"2012";"C";"parttime";"female";"inclusive";"1419"
"2012";"C";"parttime";"female";"exclusive";"1404"
"2012";"C";"fulltime";"total";"inclusive";"3275"
"2012";"C";"fulltime";"total";"exclusive";"3214"
"2012";"C";"fulltime";"male";"inclusive";"3342"
"2012";"C";"fulltime";"male";"exclusive";"3277"
"2012";"C";"fulltime";"female";"inclusive";"2677"
"2012";"C";"fulltime";"female";"exclusive";"2659"
"2012";"D";"total";"total";"inclusive";"4159"
"2012";"D";"total";"total";"exclusive";"4116"
"2012";"D";"total";"male";"inclusive";"4515"
"2012";"D";"total";"male";"exclusive";"4462"
"2012";"D";"total";"female";"inclusive";"3093"
"2012";"D";"total";"female";"exclusive";"3078"
"2012";"D";"parttime";"total";"inclusive";"3115"
"2012";"D";"parttime";"total";"exclusive";"3050"
"2012";"D";"parttime";"male";"inclusive";"3735"
"2012";"D";"parttime";"male";"exclusive";"3611"
"2012";"D";"parttime";"female";"inclusive";"2602"
"2012";"D";"parttime";"female";"exclusive";"2585"
"2012";"D";"fulltime";"total";"inclusive";"4526"
"2012";"D";"fulltime";"total";"exclusive";"4490"
"2012";"D";"fulltime";"male";"inclusive";"4660"
"2012";"D";"fulltime";"male";"exclusive";"4620"
"2012";"D";"fulltime";"female";"inclusive";"3741"
"2012";"D";"fulltime";"female";"exclusive";"3728"
"2012";"E";"total";"total";"inclusive";"3053"
"2012";"E";"total";"total";"exclusive";"2916"
"2012";"E";"total";"male";"inclusive";"3218"
"2012";"E";"total";"male";"exclusive";"3051"
"2012";"E";"total";"female";"inclusive";"2410"
"2012";"E";"total";"female";"exclusive";"2387"
"2012";"E";"parttime";"total";"inclusive";"2302"
"2012";"E";"parttime";"total";"exclusive";"2161"
"2012";"E";"parttime";"male";"inclusive";"2539"
"2012";"E";"parttime";"male";"exclusive";"2292"
"2012";"E";"parttime";"female";"inclusive";"2041"
"2012";"E";"parttime";"female";"exclusive";"2017"
"2012";"E";"fulltime";"total";"inclusive";"3347"
"2012";"E";"fulltime";"total";"exclusive";"3211"
"2012";"E";"fulltime";"male";"inclusive";"3371"
"2012";"E";"fulltime";"male";"exclusive";"3223"
"2012";"E";"fulltime";"female";"inclusive";"3120"
"2012";"E";"fulltime";"female";"exclusive";"3099"
"2012";"F";"total";"total";"inclusive";"3063"
"2012";"F";"total";"total";"exclusive";"3002"
"2012";"F";"total";"male";"inclusive";"3214"
"2012";"F";"total";"male";"exclusive";"3146"
"2012";"F";"total";"female";"inclusive";"1834"
"2012";"F";"total";"female";"exclusive";"1823"
"2012";"F";"parttime";"total";"inclusive";"1871"
"2012";"F";"parttime";"total";"exclusive";"1804"
"2012";"F";"parttime";"male";"inclusive";"2108"
"2012";"F";"parttime";"male";"exclusive";"2009"
"2012";"F";"parttime";"female";"inclusive";"1457"
"2012";"F";"parttime";"female";"exclusive";"1446"
"2012";"F";"fulltime";"total";"inclusive";"3398"
"2012";"F";"fulltime";"total";"exclusive";"3338"
"2012";"F";"fulltime";"male";"inclusive";"3419"
"2012";"F";"fulltime";"male";"exclusive";"3357"
"2012";"F";"fulltime";"female";"inclusive";"2854"
"2012";"F";"fulltime";"female";"exclusive";"2843"
"2012";"G";"total";"total";"inclusive";"1846"
"2012";"G";"total";"total";"exclusive";"1819"
"2012";"G";"total";"male";"inclusive";"2404"
"2012";"G";"total";"male";"exclusive";"2365"
"2012";"G";"total";"female";"inclusive";"1203"
"2012";"G";"total";"female";"exclusive";"1190"
"2012";"G";"parttime";"total";"inclusive";"866"
"2012";"G";"parttime";"total";"exclusive";"845"
"2012";"G";"parttime";"male";"inclusive";"831"
"2012";"G";"parttime";"male";"exclusive";"795"
"2012";"G";"parttime";"female";"inclusive";"883"
"2012";"G";"parttime";"female";"exclusive";"870"
"2012";"G";"fulltime";"total";"inclusive";"3088"
"2012";"G";"fulltime";"total";"exclusive";"3054"
"2012";"G";"fulltime";"male";"inclusive";"3254"
"2012";"G";"fulltime";"male";"exclusive";"3213"
"2012";"G";"fulltime";"female";"inclusive";"2472"
"2012";"G";"fulltime";"female";"exclusive";"2461"
"2012";"H";"total";"total";"inclusive";"2495"
"2012";"H";"total";"total";"exclusive";"2331"
"2012";"H";"total";"male";"inclusive";"2757"
"2012";"H";"total";"male";"exclusive";"2547"
"2012";"H";"total";"female";"inclusive";"1667"
"2012";"H";"total";"female";"exclusive";"1648"
"2012";"H";"parttime";"total";"inclusive";"1378"
"2012";"H";"parttime";"total";"exclusive";"1287"
"2012";"H";"parttime";"male";"inclusive";"1488"
"2012";"H";"parttime";"male";"exclusive";"1340"
"2012";"H";"parttime";"female";"inclusive";"1228"
"2012";"H";"parttime";"female";"exclusive";"1215"
"2012";"H";"fulltime";"total";"inclusive";"3280"
"2012";"H";"fulltime";"total";"exclusive";"3066"
"2012";"H";"fulltime";"male";"inclusive";"3340"
"2012";"H";"fulltime";"male";"exclusive";"3102"
"2012";"H";"fulltime";"female";"inclusive";"2814"
"2012";"H";"fulltime";"female";"exclusive";"2783"
"2012";"I";"total";"total";"inclusive";"959"
"2012";"I";"total";"total";"exclusive";"949"
"2012";"I";"total";"male";"inclusive";"1145"
"2012";"I";"total";"male";"exclusive";"1135"
"2012";"I";"total";"female";"inclusive";"786"
"2012";"I";"total";"female";"exclusive";"775"
"2012";"I";"parttime";"total";"inclusive";"548"
"2012";"I";"parttime";"total";"exclusive";"537"
"2012";"I";"parttime";"male";"inclusive";"497"
"2012";"I";"parttime";"male";"exclusive";"487"
"2012";"I";"parttime";"female";"inclusive";"584"
"2012";"I";"parttime";"female";"exclusive";"572"
"2012";"I";"fulltime";"total";"inclusive";"2246"
"2012";"I";"fulltime";"total";"exclusive";"2239"
"2012";"I";"fulltime";"male";"inclusive";"2356"
"2012";"I";"fulltime";"male";"exclusive";"2347"
"2012";"I";"fulltime";"female";"inclusive";"1997"
"2012";"I";"fulltime";"female";"exclusive";"1991"
"2012";"J";"total";"total";"inclusive";"3436"
"2012";"J";"total";"total";"exclusive";"3416"
"2012";"J";"total";"male";"inclusive";"3796"
"2012";"J";"total";"male";"exclusive";"3773"
"2012";"J";"total";"female";"inclusive";"2481"
"2012";"J";"total";"female";"exclusive";"2473"
"2012";"J";"parttime";"total";"inclusive";"2176"
"2012";"J";"parttime";"total";"exclusive";"2150"
"2012";"J";"parttime";"male";"inclusive";"2449"
"2012";"J";"parttime";"male";"exclusive";"2406"
"2012";"J";"parttime";"female";"inclusive";"1925"
"2012";"J";"parttime";"female";"exclusive";"1914"
"2012";"J";"fulltime";"total";"inclusive";"4017"
"2012";"J";"fulltime";"total";"exclusive";"4001"
"2012";"J";"fulltime";"male";"inclusive";"4150"
"2012";"J";"fulltime";"male";"exclusive";"4131"
"2012";"J";"fulltime";"female";"inclusive";"3319"
"2012";"J";"fulltime";"female";"exclusive";"3313"
"2012";"K";"total";"total";"inclusive";"3774"
"2012";"K";"total";"total";"exclusive";"3761"
"2012";"K";"total";"male";"inclusive";"4659"
"2012";"K";"total";"male";"exclusive";"4644"
"2012";"K";"total";"female";"inclusive";"2658"
"2012";"K";"total";"female";"exclusive";"2647"
"2012";"K";"parttime";"total";"inclusive";"2198"
"2012";"K";"parttime";"total";"exclusive";"2181"
"2012";"K";"parttime";"male";"inclusive";"2615"
"2012";"K";"parttime";"male";"exclusive";"2584"
"2012";"K";"parttime";"female";"inclusive";"2072"
"2012";"K";"parttime";"female";"exclusive";"2059"
"2012";"K";"fulltime";"total";"inclusive";"4641"
"2012";"K";"fulltime";"total";"exclusive";"4629"
"2012";"K";"fulltime";"male";"inclusive";"5013"
"2012";"K";"fulltime";"male";"exclusive";"5001"
"2012";"K";"fulltime";"female";"inclusive";"3597"
"2012";"K";"fulltime";"female";"exclusive";"3589"
"2012";"L";"total";"total";"inclusive";"2886"
"2012";"L";"total";"total";"exclusive";"2880"
"2012";"L";"total";"male";"inclusive";"3520"
"2012";"L";"total";"male";"exclusive";"3513"
"2012";"L";"total";"female";"inclusive";"2156"
"2012";"L";"total";"female";"exclusive";"2151"
"2012";"L";"parttime";"total";"inclusive";"1730"
"2012";"L";"parttime";"total";"exclusive";"1722"
"2012";"L";"parttime";"male";"inclusive";"1767"
"2012";"L";"parttime";"male";"exclusive";"1752"
"2012";"L";"parttime";"female";"inclusive";"1716"
"2012";"L";"parttime";"female";"exclusive";"1711"
"2012";"L";"fulltime";"total";"inclusive";"3751"
"2012";"L";"fulltime";"total";"exclusive";"3746"
"2012";"L";"fulltime";"male";"inclusive";"3988"
"2012";"L";"fulltime";"male";"exclusive";"3983"
"2012";"L";"fulltime";"female";"inclusive";"3080"
"2012";"L";"fulltime";"female";"exclusive";"3077"
"2012";"M";"total";"total";"inclusive";"3421"
"2012";"M";"total";"total";"exclusive";"3405"
"2012";"M";"total";"male";"inclusive";"4165"
"2012";"M";"total";"male";"exclusive";"4143"
"2012";"M";"total";"female";"inclusive";"2316"
"2012";"M";"total";"female";"exclusive";"2309"
"2012";"M";"parttime";"total";"inclusive";"1922"
"2012";"M";"parttime";"total";"exclusive";"1904"
"2012";"M";"parttime";"male";"inclusive";"2274"
"2012";"M";"parttime";"male";"exclusive";"2236"
"2012";"M";"parttime";"female";"inclusive";"1739"
"2012";"M";"parttime";"female";"exclusive";"1731"
"2012";"M";"fulltime";"total";"inclusive";"4364"
"2012";"M";"fulltime";"total";"exclusive";"4349"
"2012";"M";"fulltime";"male";"inclusive";"4702"
"2012";"M";"fulltime";"male";"exclusive";"4685"
"2012";"M";"fulltime";"female";"inclusive";"3303"
"2012";"M";"fulltime";"female";"exclusive";"3298"
"2012";"N";"total";"total";"inclusive";"1486"
"2012";"N";"total";"total";"exclusive";"1454"
"2012";"N";"total";"male";"inclusive";"1738"
"2012";"N";"total";"male";"exclusive";"1691"
"2012";"N";"total";"female";"inclusive";"1149"
"2012";"N";"total";"female";"exclusive";"1137"
"2012";"N";"parttime";"total";"inclusive";"927"
"2012";"N";"parttime";"total";"exclusive";"906"
"2012";"N";"parttime";"male";"inclusive";"989"
"2012";"N";"parttime";"male";"exclusive";"954"
"2012";"N";"parttime";"female";"inclusive";"870"
"2012";"N";"parttime";"female";"exclusive";"862"
"2012";"N";"fulltime";"total";"inclusive";"2521"
"2012";"N";"fulltime";"total";"exclusive";"2469"
"2012";"N";"fulltime";"male";"inclusive";"2626"
"2012";"N";"fulltime";"male";"exclusive";"2566"
"2012";"N";"fulltime";"female";"inclusive";"2213"
"2012";"N";"fulltime";"female";"exclusive";"2184"
"2012";"O";"total";"total";"inclusive";"3003"
"2012";"O";"total";"total";"exclusive";"2985"
"2012";"O";"total";"male";"inclusive";"3260"
"2012";"O";"total";"male";"exclusive";"3236"
"2012";"O";"total";"female";"inclusive";"2595"
"2012";"O";"total";"female";"exclusive";"2585"
"2012";"O";"parttime";"total";"inclusive";"2172"
"2012";"O";"parttime";"total";"exclusive";"2158"
"2012";"O";"parttime";"male";"inclusive";"2121"
"2012";"O";"parttime";"male";"exclusive";"2099"
"2012";"O";"parttime";"female";"inclusive";"2193"
"2012";"O";"parttime";"female";"exclusive";"2183"
"2012";"O";"fulltime";"total";"inclusive";"3426"
"2012";"O";"fulltime";"total";"exclusive";"3405"
"2012";"O";"fulltime";"male";"inclusive";"3479"
"2012";"O";"fulltime";"male";"exclusive";"3455"
"2012";"O";"fulltime";"female";"inclusive";"3242"
"2012";"O";"fulltime";"female";"exclusive";"3233"
"2012";"P";"total";"total";"inclusive";"2469"
"2012";"P";"total";"total";"exclusive";"2466"
"2012";"P";"total";"male";"inclusive";"3015"
"2012";"P";"total";"male";"exclusive";"3010"
"2012";"P";"total";"female";"inclusive";"2144"
"2012";"P";"total";"female";"exclusive";"2143"
"2012";"P";"parttime";"total";"inclusive";"1966"
"2012";"P";"parttime";"total";"exclusive";"1963"
"2012";"P";"parttime";"male";"inclusive";"2262"
"2012";"P";"parttime";"male";"exclusive";"2256"
"2012";"P";"parttime";"female";"inclusive";"1864"
"2012";"P";"parttime";"female";"exclusive";"1862"
"2012";"P";"fulltime";"total";"inclusive";"3427"
"2012";"P";"fulltime";"total";"exclusive";"3424"
"2012";"P";"fulltime";"male";"inclusive";"3635"
"2012";"P";"fulltime";"male";"exclusive";"3631"
"2012";"P";"fulltime";"female";"inclusive";"3122"
"2012";"P";"fulltime";"female";"exclusive";"3121"
"2012";"Q";"total";"total";"inclusive";"1873"
"2012";"Q";"total";"total";"exclusive";"1867"
"2012";"Q";"total";"male";"inclusive";"2995"
"2012";"Q";"total";"male";"exclusive";"2981"
"2012";"Q";"total";"female";"inclusive";"1664"
"2012";"Q";"total";"female";"exclusive";"1659"
"2012";"Q";"parttime";"total";"inclusive";"1457"
"2012";"Q";"parttime";"total";"exclusive";"1452"
"2012";"Q";"parttime";"male";"inclusive";"1758"
"2012";"Q";"parttime";"male";"exclusive";"1749"
"2012";"Q";"parttime";"female";"inclusive";"1428"
"2012";"Q";"parttime";"female";"exclusive";"1425"
"2012";"Q";"fulltime";"total";"inclusive";"3208"
"2012";"Q";"fulltime";"total";"exclusive";"3196"
"2012";"Q";"fulltime";"male";"inclusive";"3881"
"2012";"Q";"fulltime";"male";"exclusive";"3864"
"2012";"Q";"fulltime";"female";"inclusive";"2786"
"2012";"Q";"fulltime";"female";"exclusive";"2778"
"2012";"R";"total";"total";"inclusive";"1635"
"2012";"R";"total";"total";"exclusive";"1628"
"2012";"R";"total";"male";"inclusive";"2037"
"2012";"R";"total";"male";"exclusive";"2027"
"2012";"R";"total";"female";"inclusive";"1267"
"2012";"R";"total";"female";"exclusive";"1261"
"2012";"R";"parttime";"total";"inclusive";"943"
"2012";"R";"parttime";"total";"exclusive";"937"
"2012";"R";"parttime";"male";"inclusive";"916"
"2012";"R";"parttime";"male";"exclusive";"907"
"2012";"R";"parttime";"female";"inclusive";"961"
"2012";"R";"parttime";"female";"exclusive";"956"
"2012";"R";"fulltime";"total";"inclusive";"3245"
"2012";"R";"fulltime";"total";"exclusive";"3236"
"2012";"R";"fulltime";"male";"inclusive";"3523"
"2012";"R";"fulltime";"male";"exclusive";"3512"
"2012";"R";"fulltime";"female";"inclusive";"2642"
"2012";"R";"fulltime";"female";"exclusive";"2638"
"2012";"S";"total";"total";"inclusive";"1938"
"2012";"S";"total";"total";"exclusive";"1928"
"2012";"S";"total";"male";"inclusive";"2590"
"2012";"S";"total";"male";"exclusive";"2572"
"2012";"S";"total";"female";"inclusive";"1579"
"2012";"S";"total";"female";"exclusive";"1573"
"2012";"S";"parttime";"total";"inclusive";"1281"
"2012";"S";"parttime";"total";"exclusive";"1273"
"2012";"S";"parttime";"male";"inclusive";"1360"
"2012";"S";"parttime";"male";"exclusive";"1346"
"2012";"S";"parttime";"female";"inclusive";"1258"
"2012";"S";"parttime";"female";"exclusive";"1251"
"2012";"S";"fulltime";"total";"inclusive";"3006"
"2012";"S";"fulltime";"total";"exclusive";"2992"
"2012";"S";"fulltime";"male";"inclusive";"3409"
"2012";"S";"fulltime";"male";"exclusive";"3389"
"2012";"S";"fulltime";"female";"inclusive";"2493"
"2012";"S";"fulltime";"female";"exclusive";"2487"
"2013";"A";"total";"total";"inclusive";"1655"
"2013";"A";"total";"total";"exclusive";"1605"
"2013";"A";"total";"male";"inclusive";"1911"
"2013";"A";"total";"male";"exclusive";"1848"
"2013";"A";"total";"female";"inclusive";"1127"
"2013";"A";"total";"female";"exclusive";"1105"
"2013";"A";"parttime";"total";"inclusive";"749"
"2013";"A";"parttime";"total";"exclusive";"732"
"2013";"A";"parttime";"male";"inclusive";"676"
"2013";"A";"parttime";"male";"exclusive";"655"
"2013";"A";"parttime";"female";"inclusive";"830"
"2013";"A";"parttime";"female";"exclusive";"818"
"2013";"A";"fulltime";"total";"inclusive";"2636"
"2013";"A";"fulltime";"total";"exclusive";"2551"
"2013";"A";"fulltime";"male";"inclusive";"2761"
"2013";"A";"fulltime";"male";"exclusive";"2669"
"2013";"A";"fulltime";"female";"inclusive";"2025"
"2013";"A";"fulltime";"female";"exclusive";"1972"
"2013";"B";"total";"total";"inclusive";"5131"
"2013";"B";"total";"total";"exclusive";"5051"
"2013";"B";"total";"male";"inclusive";"5406"
"2013";"B";"total";"male";"exclusive";"5318"
"2013";"B";"total";"female";"inclusive";"3539"
"2013";"B";"total";"female";"exclusive";"3507"
"2013";"B";"parttime";"total";"inclusive";"3986"
"2013";"B";"parttime";"total";"exclusive";"3891"
"2013";"B";"parttime";"male";"inclusive";"4830"
"2013";"B";"parttime";"male";"exclusive";"4690"
"2013";"B";"parttime";"female";"inclusive";"2740"
"2013";"B";"parttime";"female";"exclusive";"2712"
"2013";"B";"fulltime";"total";"inclusive";"5376"
"2013";"B";"fulltime";"total";"exclusive";"5300"
"2013";"B";"fulltime";"male";"inclusive";"5487"
"2013";"B";"fulltime";"male";"exclusive";"5406"
"2013";"B";"fulltime";"female";"inclusive";"4289"
"2013";"B";"fulltime";"female";"exclusive";"4253"
"2013";"C";"total";"total";"inclusive";"2909"
"2013";"C";"total";"total";"exclusive";"2844"
"2013";"C";"total";"male";"inclusive";"3194"
"2013";"C";"total";"male";"exclusive";"3116"
"2013";"C";"total";"female";"inclusive";"1900"
"2013";"C";"total";"female";"exclusive";"1883"
"2013";"C";"parttime";"total";"inclusive";"1712"
"2013";"C";"parttime";"total";"exclusive";"1675"
"2013";"C";"parttime";"male";"inclusive";"1996"
"2013";"C";"parttime";"male";"exclusive";"1932"
"2013";"C";"parttime";"female";"inclusive";"1462"
"2013";"C";"parttime";"female";"exclusive";"1448"
"2013";"C";"fulltime";"total";"inclusive";"3369"
"2013";"C";"fulltime";"total";"exclusive";"3294"
"2013";"C";"fulltime";"male";"inclusive";"3435"
"2013";"C";"fulltime";"male";"exclusive";"3354"
"2013";"C";"fulltime";"female";"inclusive";"2787"
"2013";"C";"fulltime";"female";"exclusive";"2765"
"2013";"D";"total";"total";"inclusive";"4107"
"2013";"D";"total";"total";"exclusive";"4061"
"2013";"D";"total";"male";"inclusive";"4442"
"2013";"D";"total";"male";"exclusive";"4388"
"2013";"D";"total";"female";"inclusive";"3096"
"2013";"D";"total";"female";"exclusive";"3077"
"2013";"D";"parttime";"total";"inclusive";"3048"
"2013";"D";"parttime";"total";"exclusive";"3013"
"2013";"D";"parttime";"male";"inclusive";"3596"
"2013";"D";"parttime";"male";"exclusive";"3538"
"2013";"D";"parttime";"female";"inclusive";"2633"
"2013";"D";"parttime";"female";"exclusive";"2614"
"2013";"D";"fulltime";"total";"inclusive";"4465"
"2013";"D";"fulltime";"total";"exclusive";"4416"
"2013";"D";"fulltime";"male";"inclusive";"4586"
"2013";"D";"fulltime";"male";"exclusive";"4532"
"2013";"D";"fulltime";"female";"inclusive";"3727"
"2013";"D";"fulltime";"female";"exclusive";"3708"
"2013";"E";"total";"total";"inclusive";"3109"
"2013";"E";"total";"total";"exclusive";"2953"
"2013";"E";"total";"male";"inclusive";"3272"
"2013";"E";"total";"male";"exclusive";"3088"
"2013";"E";"total";"female";"inclusive";"2352"
"2013";"E";"total";"female";"exclusive";"2324"
"2013";"E";"parttime";"total";"inclusive";"2293"
"2013";"E";"parttime";"total";"exclusive";"2214"
"2013";"E";"parttime";"male";"inclusive";"2580"
"2013";"E";"parttime";"male";"exclusive";"2449"
"2013";"E";"parttime";"female";"inclusive";"2000"
"2013";"E";"parttime";"female";"exclusive";"1974"
"2013";"E";"fulltime";"total";"inclusive";"3367"
"2013";"E";"fulltime";"total";"exclusive";"3186"
"2013";"E";"fulltime";"male";"inclusive";"3391"
"2013";"E";"fulltime";"male";"exclusive";"3198"
"2013";"E";"fulltime";"female";"inclusive";"3072"
"2013";"E";"fulltime";"female";"exclusive";"3040"
"2013";"F";"total";"total";"inclusive";"3109"
"2013";"F";"total";"total";"exclusive";"3044"
"2013";"F";"total";"male";"inclusive";"3264"
"2013";"F";"total";"male";"exclusive";"3192"
"2013";"F";"total";"female";"inclusive";"1876"
"2013";"F";"total";"female";"exclusive";"1864"
"2013";"F";"parttime";"total";"inclusive";"1834"
"2013";"F";"parttime";"total";"exclusive";"1793"
"2013";"F";"parttime";"male";"inclusive";"2049"
"2013";"F";"parttime";"male";"exclusive";"1989"
"2013";"F";"parttime";"female";"inclusive";"1492"
"2013";"F";"parttime";"female";"exclusive";"1481"
"2013";"F";"fulltime";"total";"inclusive";"3452"
"2013";"F";"fulltime";"total";"exclusive";"3380"
"2013";"F";"fulltime";"male";"inclusive";"3473"
"2013";"F";"fulltime";"male";"exclusive";"3398"
"2013";"F";"fulltime";"female";"inclusive";"2930"
"2013";"F";"fulltime";"female";"exclusive";"2915"
"2013";"G";"total";"total";"inclusive";"1864"
"2013";"G";"total";"total";"exclusive";"1838"
"2013";"G";"total";"male";"inclusive";"2423"
"2013";"G";"total";"male";"exclusive";"2385"
"2013";"G";"total";"female";"inclusive";"1221"
"2013";"G";"total";"female";"exclusive";"1208"
"2013";"G";"parttime";"total";"inclusive";"869"
"2013";"G";"parttime";"total";"exclusive";"855"
"2013";"G";"parttime";"male";"inclusive";"812"
"2013";"G";"parttime";"male";"exclusive";"793"
"2013";"G";"parttime";"female";"inclusive";"898"
"2013";"G";"parttime";"female";"exclusive";"886"
"2013";"G";"fulltime";"total";"inclusive";"3140"
"2013";"G";"fulltime";"total";"exclusive";"3099"
"2013";"G";"fulltime";"male";"inclusive";"3300"
"2013";"G";"fulltime";"male";"exclusive";"3252"
"2013";"G";"fulltime";"female";"inclusive";"2535"
"2013";"G";"fulltime";"female";"exclusive";"2520"
"2013";"H";"total";"total";"inclusive";"2550"
"2013";"H";"total";"total";"exclusive";"2390"
"2013";"H";"total";"male";"inclusive";"2829"
"2013";"H";"total";"male";"exclusive";"2623"
"2013";"H";"total";"female";"inclusive";"1687"
"2013";"H";"total";"female";"exclusive";"1671"
"2013";"H";"parttime";"total";"inclusive";"1347"
"2013";"H";"parttime";"total";"exclusive";"1293"
"2013";"H";"parttime";"male";"inclusive";"1433"
"2013";"H";"parttime";"male";"exclusive";"1345"
"2013";"H";"parttime";"female";"inclusive";"1236"
"2013";"H";"parttime";"female";"exclusive";"1226"
"2013";"H";"fulltime";"total";"inclusive";"3370"
"2013";"H";"fulltime";"total";"exclusive";"3138"
"2013";"H";"fulltime";"male";"inclusive";"3431"
"2013";"H";"fulltime";"male";"exclusive";"3173"
"2013";"H";"fulltime";"female";"inclusive";"2890"
"2013";"H";"fulltime";"female";"exclusive";"2858"
"2013";"I";"total";"total";"inclusive";"976"
"2013";"I";"total";"total";"exclusive";"967"
"2013";"I";"total";"male";"inclusive";"1163"
"2013";"I";"total";"male";"exclusive";"1155"
"2013";"I";"total";"female";"inclusive";"801"
"2013";"I";"total";"female";"exclusive";"790"
"2013";"I";"parttime";"total";"inclusive";"568"
"2013";"I";"parttime";"total";"exclusive";"558"
"2013";"I";"parttime";"male";"inclusive";"523"
"2013";"I";"parttime";"male";"exclusive";"516"
"2013";"I";"parttime";"female";"inclusive";"600"
"2013";"I";"parttime";"female";"exclusive";"589"
"2013";"I";"fulltime";"total";"inclusive";"2271"
"2013";"I";"fulltime";"total";"exclusive";"2263"
"2013";"I";"fulltime";"male";"inclusive";"2386"
"2013";"I";"fulltime";"male";"exclusive";"2377"
"2013";"I";"fulltime";"female";"inclusive";"2012"
"2013";"I";"fulltime";"female";"exclusive";"2005"
"2013";"J";"total";"total";"inclusive";"3463"
"2013";"J";"total";"total";"exclusive";"3446"
"2013";"J";"total";"male";"inclusive";"3810"
"2013";"J";"total";"male";"exclusive";"3790"
"2013";"J";"total";"female";"inclusive";"2527"
"2013";"J";"total";"female";"exclusive";"2519"
"2013";"J";"parttime";"total";"inclusive";"2189"
"2013";"J";"parttime";"total";"exclusive";"2177"
"2013";"J";"parttime";"male";"inclusive";"2436"
"2013";"J";"parttime";"male";"exclusive";"2420"
"2013";"J";"parttime";"female";"inclusive";"1959"
"2013";"J";"parttime";"female";"exclusive";"1952"
"2013";"J";"fulltime";"total";"inclusive";"4034"
"2013";"J";"fulltime";"total";"exclusive";"4015"
"2013";"J";"fulltime";"male";"inclusive";"4163"
"2013";"J";"fulltime";"male";"exclusive";"4142"
"2013";"J";"fulltime";"female";"inclusive";"3355"
"2013";"J";"fulltime";"female";"exclusive";"3345"
"2013";"K";"total";"total";"inclusive";"3852"
"2013";"K";"total";"total";"exclusive";"3838"
"2013";"K";"total";"male";"inclusive";"4727"
"2013";"K";"total";"male";"exclusive";"4710"
"2013";"K";"total";"female";"inclusive";"2748"
"2013";"K";"total";"female";"exclusive";"2736"
"2013";"K";"parttime";"total";"inclusive";"2264"
"2013";"K";"parttime";"total";"exclusive";"2250"
"2013";"K";"parttime";"male";"inclusive";"2698"
"2013";"K";"parttime";"male";"exclusive";"2679"
"2013";"K";"parttime";"female";"inclusive";"2131"
"2013";"K";"parttime";"female";"exclusive";"2118"
"2013";"K";"fulltime";"total";"inclusive";"4725"
"2013";"K";"fulltime";"total";"exclusive";"4710"
"2013";"K";"fulltime";"male";"inclusive";"5085"
"2013";"K";"fulltime";"male";"exclusive";"5068"
"2013";"K";"fulltime";"female";"inclusive";"3727"
"2013";"K";"fulltime";"female";"exclusive";"3716"
"2013";"L";"total";"total";"inclusive";"2931"
"2013";"L";"total";"total";"exclusive";"2924"
"2013";"L";"total";"male";"inclusive";"3551"
"2013";"L";"total";"male";"exclusive";"3543"
"2013";"L";"total";"female";"inclusive";"2208"
"2013";"L";"total";"female";"exclusive";"2203"
"2013";"L";"parttime";"total";"inclusive";"1794"
"2013";"L";"parttime";"total";"exclusive";"1788"
"2013";"L";"parttime";"male";"inclusive";"1852"
"2013";"L";"parttime";"male";"exclusive";"1845"
"2013";"L";"parttime";"female";"inclusive";"1772"
"2013";"L";"parttime";"female";"exclusive";"1767"
"2013";"L";"fulltime";"total";"inclusive";"3806"
"2013";"L";"fulltime";"total";"exclusive";"3798"
"2013";"L";"fulltime";"male";"inclusive";"4034"
"2013";"L";"fulltime";"male";"exclusive";"4025"
"2013";"L";"fulltime";"female";"inclusive";"3153"
"2013";"L";"fulltime";"female";"exclusive";"3148"
"2013";"M";"total";"total";"inclusive";"3478"
"2013";"M";"total";"total";"exclusive";"3462"
"2013";"M";"total";"male";"inclusive";"4217"
"2013";"M";"total";"male";"exclusive";"4196"
"2013";"M";"total";"female";"inclusive";"2378"
"2013";"M";"total";"female";"exclusive";"2371"
"2013";"M";"parttime";"total";"inclusive";"1980"
"2013";"M";"parttime";"total";"exclusive";"1969"
"2013";"M";"parttime";"male";"inclusive";"2336"
"2013";"M";"parttime";"male";"exclusive";"2318"
"2013";"M";"parttime";"female";"inclusive";"1793"
"2013";"M";"parttime";"female";"exclusive";"1786"
"2013";"M";"fulltime";"total";"inclusive";"4430"
"2013";"M";"fulltime";"total";"exclusive";"4412"
"2013";"M";"fulltime";"male";"inclusive";"4757"
"2013";"M";"fulltime";"male";"exclusive";"4736"
"2013";"M";"fulltime";"female";"inclusive";"3395"
"2013";"M";"fulltime";"female";"exclusive";"3388"
"2013";"N";"total";"total";"inclusive";"1513"
"2013";"N";"total";"total";"exclusive";"1478"
"2013";"N";"total";"male";"inclusive";"1769"
"2013";"N";"total";"male";"exclusive";"1719"
"2013";"N";"total";"female";"inclusive";"1169"
"2013";"N";"total";"female";"exclusive";"1155"
"2013";"N";"parttime";"total";"inclusive";"954"
"2013";"N";"parttime";"total";"exclusive";"932"
"2013";"N";"parttime";"male";"inclusive";"1017"
"2013";"N";"parttime";"male";"exclusive";"982"
"2013";"N";"parttime";"female";"inclusive";"895"
"2013";"N";"parttime";"female";"exclusive";"885"
"2013";"N";"fulltime";"total";"inclusive";"2568"
"2013";"N";"fulltime";"total";"exclusive";"2509"
"2013";"N";"fulltime";"male";"inclusive";"2683"
"2013";"N";"fulltime";"male";"exclusive";"2614"
"2013";"N";"fulltime";"female";"inclusive";"2229"
"2013";"N";"fulltime";"female";"exclusive";"2196"
"2013";"O";"total";"total";"inclusive";"3031"
"2013";"O";"total";"total";"exclusive";"3013"
"2013";"O";"total";"male";"inclusive";"3266"
"2013";"O";"total";"male";"exclusive";"3243"
"2013";"O";"total";"female";"inclusive";"2657"
"2013";"O";"total";"female";"exclusive";"2648"
"2013";"O";"parttime";"total";"inclusive";"2261"
"2013";"O";"parttime";"total";"exclusive";"2252"
"2013";"O";"parttime";"male";"inclusive";"2266"
"2013";"O";"parttime";"male";"exclusive";"2255"
"2013";"O";"parttime";"female";"inclusive";"2258"
"2013";"O";"parttime";"female";"exclusive";"2250"
"2013";"O";"fulltime";"total";"inclusive";"3425"
"2013";"O";"fulltime";"total";"exclusive";"3403"
"2013";"O";"fulltime";"male";"inclusive";"3462"
"2013";"O";"fulltime";"male";"exclusive";"3436"
"2013";"O";"fulltime";"female";"inclusive";"3298"
"2013";"O";"fulltime";"female";"exclusive";"3288"
"2013";"P";"total";"total";"inclusive";"2506"
"2013";"P";"total";"total";"exclusive";"2503"
"2013";"P";"total";"male";"inclusive";"3062"
"2013";"P";"total";"male";"exclusive";"3058"
"2013";"P";"total";"female";"inclusive";"2182"
"2013";"P";"total";"female";"exclusive";"2181"
"2013";"P";"parttime";"total";"inclusive";"1990"
"2013";"P";"parttime";"total";"exclusive";"1988"
"2013";"P";"parttime";"male";"inclusive";"2270"
"2013";"P";"parttime";"male";"exclusive";"2265"
"2013";"P";"parttime";"female";"inclusive";"1897"
"2013";"P";"parttime";"female";"exclusive";"1896"
"2013";"P";"fulltime";"total";"inclusive";"3483"
"2013";"P";"fulltime";"total";"exclusive";"3480"
"2013";"P";"fulltime";"male";"inclusive";"3694"
"2013";"P";"fulltime";"male";"exclusive";"3689"
"2013";"P";"fulltime";"female";"inclusive";"3178"
"2013";"P";"fulltime";"female";"exclusive";"3176"
"2013";"Q";"total";"total";"inclusive";"1930"
"2013";"Q";"total";"total";"exclusive";"1924"
"2013";"Q";"total";"male";"inclusive";"3045"
"2013";"Q";"total";"male";"exclusive";"3031"
"2013";"Q";"total";"female";"inclusive";"1722"
"2013";"Q";"total";"female";"exclusive";"1717"
"2013";"Q";"parttime";"total";"inclusive";"1511"
"2013";"Q";"parttime";"total";"exclusive";"1507"
"2013";"Q";"parttime";"male";"inclusive";"1814"
"2013";"Q";"parttime";"male";"exclusive";"1809"
"2013";"Q";"parttime";"female";"inclusive";"1482"
"2013";"Q";"parttime";"female";"exclusive";"1478"
"2013";"Q";"fulltime";"total";"inclusive";"3328"
"2013";"Q";"fulltime";"total";"exclusive";"3315"
"2013";"Q";"fulltime";"male";"inclusive";"3965"
"2013";"Q";"fulltime";"male";"exclusive";"3945"
"2013";"Q";"fulltime";"female";"inclusive";"2920"
"2013";"Q";"fulltime";"female";"exclusive";"2910"
"2013";"R";"total";"total";"inclusive";"1650"
"2013";"R";"total";"total";"exclusive";"1643"
"2013";"R";"total";"male";"inclusive";"2051"
"2013";"R";"total";"male";"exclusive";"2041"
"2013";"R";"total";"female";"inclusive";"1281"
"2013";"R";"total";"female";"exclusive";"1275"
"2013";"R";"parttime";"total";"inclusive";"963"
"2013";"R";"parttime";"total";"exclusive";"958"
"2013";"R";"parttime";"male";"inclusive";"932"
"2013";"R";"parttime";"male";"exclusive";"926"
"2013";"R";"parttime";"female";"inclusive";"983"
"2013";"R";"parttime";"female";"exclusive";"978"
"2013";"R";"fulltime";"total";"inclusive";"3275"
"2013";"R";"fulltime";"total";"exclusive";"3262"
"2013";"R";"fulltime";"male";"inclusive";"3555"
"2013";"R";"fulltime";"male";"exclusive";"3540"
"2013";"R";"fulltime";"female";"inclusive";"2657"
"2013";"R";"fulltime";"female";"exclusive";"2648"
"2013";"S";"total";"total";"inclusive";"1958"
"2013";"S";"total";"total";"exclusive";"1948"
"2013";"S";"total";"male";"inclusive";"2638"
"2013";"S";"total";"male";"exclusive";"2619"
"2013";"S";"total";"female";"inclusive";"1595"
"2013";"S";"total";"female";"exclusive";"1589"
"2013";"S";"parttime";"total";"inclusive";"1310"
"2013";"S";"parttime";"total";"exclusive";"1303"
"2013";"S";"parttime";"male";"inclusive";"1432"
"2013";"S";"parttime";"male";"exclusive";"1421"
"2013";"S";"parttime";"female";"inclusive";"1274"
"2013";"S";"parttime";"female";"exclusive";"1268"
"2013";"S";"fulltime";"total";"inclusive";"3098"
"2013";"S";"fulltime";"total";"exclusive";"3080"
"2013";"S";"fulltime";"male";"inclusive";"3517"
"2013";"S";"fulltime";"male";"exclusive";"3492"
"2013";"S";"fulltime";"female";"inclusive";"2574"
"2013";"S";"fulltime";"female";"exclusive";"2567"
"2014";"A";"total";"total";"inclusive";"1681"
"2014";"A";"total";"total";"exclusive";"1631"
"2014";"A";"total";"male";"inclusive";"1941"
"2014";"A";"total";"male";"exclusive";"1878"
"2014";"A";"total";"female";"inclusive";"1147"
"2014";"A";"total";"female";"exclusive";"1123"
"2014";"A";"parttime";"total";"inclusive";"785"
"2014";"A";"parttime";"total";"exclusive";"760"
"2014";"A";"parttime";"male";"inclusive";"730"
"2014";"A";"parttime";"male";"exclusive";"695"
"2014";"A";"parttime";"female";"inclusive";"848"
"2014";"A";"parttime";"female";"exclusive";"834"
"2014";"A";"fulltime";"total";"inclusive";"2668"
"2014";"A";"fulltime";"total";"exclusive";"2589"
"2014";"A";"fulltime";"male";"inclusive";"2798"
"2014";"A";"fulltime";"male";"exclusive";"2714"
"2014";"A";"fulltime";"female";"inclusive";"2043"
"2014";"A";"fulltime";"female";"exclusive";"1988"
"2014";"B";"total";"total";"inclusive";"5303"
"2014";"B";"total";"total";"exclusive";"5214"
"2014";"B";"total";"male";"inclusive";"5572"
"2014";"B";"total";"male";"exclusive";"5474"
"2014";"B";"total";"female";"inclusive";"3748"
"2014";"B";"total";"female";"exclusive";"3710"
"2014";"B";"parttime";"total";"inclusive";"4351"
"2014";"B";"parttime";"total";"exclusive";"4163"
"2014";"B";"parttime";"male";"inclusive";"5241"
"2014";"B";"parttime";"male";"exclusive";"4966"
"2014";"B";"parttime";"female";"inclusive";"2877"
"2014";"B";"parttime";"female";"exclusive";"2834"
"2014";"B";"fulltime";"total";"inclusive";"5516"
"2014";"B";"fulltime";"total";"exclusive";"5449"
"2014";"B";"fulltime";"male";"inclusive";"5623"
"2014";"B";"fulltime";"male";"exclusive";"5553"
"2014";"B";"fulltime";"female";"inclusive";"4510"
"2014";"B";"fulltime";"female";"exclusive";"4476"
"2014";"C";"total";"total";"inclusive";"2948"
"2014";"C";"total";"total";"exclusive";"2883"
"2014";"C";"total";"male";"inclusive";"3236"
"2014";"C";"total";"male";"exclusive";"3157"
"2014";"C";"total";"female";"inclusive";"1935"
"2014";"C";"total";"female";"exclusive";"1918"
"2014";"C";"parttime";"total";"inclusive";"1765"
"2014";"C";"parttime";"total";"exclusive";"1710"
"2014";"C";"parttime";"male";"inclusive";"2072"
"2014";"C";"parttime";"male";"exclusive";"1973"
"2014";"C";"parttime";"female";"inclusive";"1484"
"2014";"C";"parttime";"female";"exclusive";"1469"
"2014";"C";"fulltime";"total";"inclusive";"3417"
"2014";"C";"fulltime";"total";"exclusive";"3348"
"2014";"C";"fulltime";"male";"inclusive";"3481"
"2014";"C";"fulltime";"male";"exclusive";"3407"
"2014";"C";"fulltime";"female";"inclusive";"2852"
"2014";"C";"fulltime";"female";"exclusive";"2832"
"2014";"D";"total";"total";"inclusive";"4174"
"2014";"D";"total";"total";"exclusive";"4134"
"2014";"D";"total";"male";"inclusive";"4498"
"2014";"D";"total";"male";"exclusive";"4449"
"2014";"D";"total";"female";"inclusive";"3182"
"2014";"D";"total";"female";"exclusive";"3166"
"2014";"D";"parttime";"total";"inclusive";"3112"
"2014";"D";"parttime";"total";"exclusive";"3061"
"2014";"D";"parttime";"male";"inclusive";"3684"
"2014";"D";"parttime";"male";"exclusive";"3590"
"2014";"D";"parttime";"female";"inclusive";"2651"
"2014";"D";"parttime";"female";"exclusive";"2634"
"2014";"D";"fulltime";"total";"inclusive";"4533"
"2014";"D";"fulltime";"total";"exclusive";"4496"
"2014";"D";"fulltime";"male";"inclusive";"4641"
"2014";"D";"fulltime";"male";"exclusive";"4600"
"2014";"D";"fulltime";"female";"inclusive";"3881"
"2014";"D";"fulltime";"female";"exclusive";"3866"
"2014";"E";"total";"total";"inclusive";"3138"
"2014";"E";"total";"total";"exclusive";"2980"
"2014";"E";"total";"male";"inclusive";"3288"
"2014";"E";"total";"male";"exclusive";"3103"
"2014";"E";"total";"female";"inclusive";"2411"
"2014";"E";"total";"female";"exclusive";"2385"
"2014";"E";"parttime";"total";"inclusive";"2366"
"2014";"E";"parttime";"total";"exclusive";"2220"
"2014";"E";"parttime";"male";"inclusive";"2597"
"2014";"E";"parttime";"male";"exclusive";"2360"
"2014";"E";"parttime";"female";"inclusive";"2062"
"2014";"E";"parttime";"female";"exclusive";"2036"
"2014";"E";"fulltime";"total";"inclusive";"3418"
"2014";"E";"fulltime";"total";"exclusive";"3256"
"2014";"E";"fulltime";"male";"inclusive";"3443"
"2014";"E";"fulltime";"male";"exclusive";"3269"
"2014";"E";"fulltime";"female";"inclusive";"3127"
"2014";"E";"fulltime";"female";"exclusive";"3099"
"2014";"F";"total";"total";"inclusive";"3146"
"2014";"F";"total";"total";"exclusive";"3079"
"2014";"F";"total";"male";"inclusive";"3305"
"2014";"F";"total";"male";"exclusive";"3232"
"2014";"F";"total";"female";"inclusive";"1909"
"2014";"F";"total";"female";"exclusive";"1897"
"2014";"F";"parttime";"total";"inclusive";"1864"
"2014";"F";"parttime";"total";"exclusive";"1809"
"2014";"F";"parttime";"male";"inclusive";"2085"
"2014";"F";"parttime";"male";"exclusive";"2003"
"2014";"F";"parttime";"female";"inclusive";"1513"
"2014";"F";"parttime";"female";"exclusive";"1502"
"2014";"F";"fulltime";"total";"inclusive";"3499"
"2014";"F";"fulltime";"total";"exclusive";"3430"
"2014";"F";"fulltime";"male";"inclusive";"3520"
"2014";"F";"fulltime";"male";"exclusive";"3448"
"2014";"F";"fulltime";"female";"inclusive";"2997"
"2014";"F";"fulltime";"female";"exclusive";"2983"
"2014";"G";"total";"total";"inclusive";"1854"
"2014";"G";"total";"total";"exclusive";"1827"
"2014";"G";"total";"male";"inclusive";"2409"
"2014";"G";"total";"male";"exclusive";"2371"
"2014";"G";"total";"female";"inclusive";"1222"
"2014";"G";"total";"female";"exclusive";"1209"
"2014";"G";"parttime";"total";"inclusive";"886"
"2014";"G";"parttime";"total";"exclusive";"868"
"2014";"G";"parttime";"male";"inclusive";"855"
"2014";"G";"parttime";"male";"exclusive";"826"
"2014";"G";"parttime";"female";"inclusive";"903"
"2014";"G";"parttime";"female";"exclusive";"890"
"2014";"G";"fulltime";"total";"inclusive";"3167"
"2014";"G";"fulltime";"total";"exclusive";"3130"
"2014";"G";"fulltime";"male";"inclusive";"3323"
"2014";"G";"fulltime";"male";"exclusive";"3280"
"2014";"G";"fulltime";"female";"inclusive";"2581"
"2014";"G";"fulltime";"female";"exclusive";"2567"
"2014";"H";"total";"total";"inclusive";"2600"
"2014";"H";"total";"total";"exclusive";"2437"
"2014";"H";"total";"male";"inclusive";"2885"
"2014";"H";"total";"male";"exclusive";"2675"
"2014";"H";"total";"female";"inclusive";"1728"
"2014";"H";"total";"female";"exclusive";"1711"
"2014";"H";"parttime";"total";"inclusive";"1417"
"2014";"H";"parttime";"total";"exclusive";"1343"
"2014";"H";"parttime";"male";"inclusive";"1537"
"2014";"H";"parttime";"male";"exclusive";"1415"
"2014";"H";"parttime";"female";"inclusive";"1262"
"2014";"H";"parttime";"female";"exclusive";"1250"
"2014";"H";"fulltime";"total";"inclusive";"3425"
"2014";"H";"fulltime";"total";"exclusive";"3201"
"2014";"H";"fulltime";"male";"inclusive";"3484"
"2014";"H";"fulltime";"male";"exclusive";"3235"
"2014";"H";"fulltime";"female";"inclusive";"2965"
"2014";"H";"fulltime";"female";"exclusive";"2935"
"2014";"I";"total";"total";"inclusive";"977"
"2014";"I";"total";"total";"exclusive";"968"
"2014";"I";"total";"male";"inclusive";"1164"
"2014";"I";"total";"male";"exclusive";"1156"
"2014";"I";"total";"female";"inclusive";"803"
"2014";"I";"total";"female";"exclusive";"793"
"2014";"I";"parttime";"total";"inclusive";"578"
"2014";"I";"parttime";"total";"exclusive";"569"
"2014";"I";"parttime";"male";"inclusive";"540"
"2014";"I";"parttime";"male";"exclusive";"533"
"2014";"I";"parttime";"female";"inclusive";"606"
"2014";"I";"parttime";"female";"exclusive";"595"
"2014";"I";"fulltime";"total";"inclusive";"2310"
"2014";"I";"fulltime";"total";"exclusive";"2302"
"2014";"I";"fulltime";"male";"inclusive";"2420"
"2014";"I";"fulltime";"male";"exclusive";"2411"
"2014";"I";"fulltime";"female";"inclusive";"2061"
"2014";"I";"fulltime";"female";"exclusive";"2055"
"2014";"J";"total";"total";"inclusive";"3580"
"2014";"J";"total";"total";"exclusive";"3564"
"2014";"J";"total";"male";"inclusive";"3928"
"2014";"J";"total";"male";"exclusive";"3908"
"2014";"J";"total";"female";"inclusive";"2620"
"2014";"J";"total";"female";"exclusive";"2613"
"2014";"J";"parttime";"total";"inclusive";"2307"
"2014";"J";"parttime";"total";"exclusive";"2289"
"2014";"J";"parttime";"male";"inclusive";"2593"
"2014";"J";"parttime";"male";"exclusive";"2564"
"2014";"J";"parttime";"female";"inclusive";"2031"
"2014";"J";"parttime";"female";"exclusive";"2023"
"2014";"J";"fulltime";"total";"inclusive";"4134"
"2014";"J";"fulltime";"total";"exclusive";"4119"
"2014";"J";"fulltime";"male";"inclusive";"4268"
"2014";"J";"fulltime";"male";"exclusive";"4250"
"2014";"J";"fulltime";"female";"inclusive";"3434"
"2014";"J";"fulltime";"female";"exclusive";"3428"
"2014";"K";"total";"total";"inclusive";"4000"
"2014";"K";"total";"total";"exclusive";"3986"
"2014";"K";"total";"male";"inclusive";"4892"
"2014";"K";"total";"male";"exclusive";"4876"
"2014";"K";"total";"female";"inclusive";"2871"
"2014";"K";"total";"female";"exclusive";"2859"
"2014";"K";"parttime";"total";"inclusive";"2336"
"2014";"K";"parttime";"total";"exclusive";"2320"
"2014";"K";"parttime";"male";"inclusive";"2744"
"2014";"K";"parttime";"male";"exclusive";"2720"
"2014";"K";"parttime";"female";"inclusive";"2206"
"2014";"K";"parttime";"female";"exclusive";"2192"
"2014";"K";"fulltime";"total";"inclusive";"4925"
"2014";"K";"fulltime";"total";"exclusive";"4912"
"2014";"K";"fulltime";"male";"inclusive";"5285"
"2014";"K";"fulltime";"male";"exclusive";"5271"
"2014";"K";"fulltime";"female";"inclusive";"3927"
"2014";"K";"fulltime";"female";"exclusive";"3917"
"2014";"L";"total";"total";"inclusive";"2909"
"2014";"L";"total";"total";"exclusive";"2903"
"2014";"L";"total";"male";"inclusive";"3525"
"2014";"L";"total";"male";"exclusive";"3517"
"2014";"L";"total";"female";"inclusive";"2205"
"2014";"L";"total";"female";"exclusive";"2200"
"2014";"L";"parttime";"total";"inclusive";"1766"
"2014";"L";"parttime";"total";"exclusive";"1760"
"2014";"L";"parttime";"male";"inclusive";"1775"
"2014";"L";"parttime";"male";"exclusive";"1763"
"2014";"L";"parttime";"female";"inclusive";"1763"
"2014";"L";"parttime";"female";"exclusive";"1758"
"2014";"L";"fulltime";"total";"inclusive";"3822"
"2014";"L";"fulltime";"total";"exclusive";"3815"
"2014";"L";"fulltime";"male";"inclusive";"4050"
"2014";"L";"fulltime";"male";"exclusive";"4043"
"2014";"L";"fulltime";"female";"inclusive";"3178"
"2014";"L";"fulltime";"female";"exclusive";"3174"
"2014";"M";"total";"total";"inclusive";"3483"
"2014";"M";"total";"total";"exclusive";"3468"
"2014";"M";"total";"male";"inclusive";"4207"
"2014";"M";"total";"male";"exclusive";"4186"
"2014";"M";"total";"female";"inclusive";"2400"
"2014";"M";"total";"female";"exclusive";"2393"
"2014";"M";"parttime";"total";"inclusive";"1982"
"2014";"M";"parttime";"total";"exclusive";"1968"
"2014";"M";"parttime";"male";"inclusive";"2315"
"2014";"M";"parttime";"male";"exclusive";"2289"
"2014";"M";"parttime";"female";"inclusive";"1800"
"2014";"M";"parttime";"female";"exclusive";"1793"
"2014";"M";"fulltime";"total";"inclusive";"4463"
"2014";"M";"fulltime";"total";"exclusive";"4448"
"2014";"M";"fulltime";"male";"inclusive";"4781"
"2014";"M";"fulltime";"male";"exclusive";"4762"
"2014";"M";"fulltime";"female";"inclusive";"3456"
"2014";"M";"fulltime";"female";"exclusive";"3450"
"2014";"N";"total";"total";"inclusive";"1532"
"2014";"N";"total";"total";"exclusive";"1496"
"2014";"N";"total";"male";"inclusive";"1786"
"2014";"N";"total";"male";"exclusive";"1734"
"2014";"N";"total";"female";"inclusive";"1191"
"2014";"N";"total";"female";"exclusive";"1176"
"2014";"N";"parttime";"total";"inclusive";"969"
"2014";"N";"parttime";"total";"exclusive";"947"
"2014";"N";"parttime";"male";"inclusive";"1037"
"2014";"N";"parttime";"male";"exclusive";"1002"
"2014";"N";"parttime";"female";"inclusive";"907"
"2014";"N";"parttime";"female";"exclusive";"897"
"2014";"N";"fulltime";"total";"inclusive";"2554"
"2014";"N";"fulltime";"total";"exclusive";"2493"
"2014";"N";"fulltime";"male";"inclusive";"2660"
"2014";"N";"fulltime";"male";"exclusive";"2590"
"2014";"N";"fulltime";"female";"inclusive";"2246"
"2014";"N";"fulltime";"female";"exclusive";"2210"
"2014";"O";"total";"total";"inclusive";"3041"
"2014";"O";"total";"total";"exclusive";"3025"
"2014";"O";"total";"male";"inclusive";"3245"
"2014";"O";"total";"male";"exclusive";"3224"
"2014";"O";"total";"female";"inclusive";"2717"
"2014";"O";"total";"female";"exclusive";"2708"
"2014";"O";"parttime";"total";"inclusive";"2246"
"2014";"O";"parttime";"total";"exclusive";"2234"
"2014";"O";"parttime";"male";"inclusive";"2107"
"2014";"O";"parttime";"male";"exclusive";"2084"
"2014";"O";"parttime";"female";"inclusive";"2308"
"2014";"O";"parttime";"female";"exclusive";"2300"
"2014";"O";"fulltime";"total";"inclusive";"3447"
"2014";"O";"fulltime";"total";"exclusive";"3429"
"2014";"O";"fulltime";"male";"inclusive";"3475"
"2014";"O";"fulltime";"male";"exclusive";"3455"
"2014";"O";"fulltime";"female";"inclusive";"3352"
"2014";"O";"fulltime";"female";"exclusive";"3343"
"2014";"P";"total";"total";"inclusive";"2521"
"2014";"P";"total";"total";"exclusive";"2518"
"2014";"P";"total";"male";"inclusive";"3073"
"2014";"P";"total";"male";"exclusive";"3068"
"2014";"P";"total";"female";"inclusive";"2205"
"2014";"P";"total";"female";"exclusive";"2203"
"2014";"P";"parttime";"total";"inclusive";"1961"
"2014";"P";"parttime";"total";"exclusive";"1958"
"2014";"P";"parttime";"male";"inclusive";"2154"
"2014";"P";"parttime";"male";"exclusive";"2149"
"2014";"P";"parttime";"female";"inclusive";"1901"
"2014";"P";"parttime";"female";"exclusive";"1899"
"2014";"P";"fulltime";"total";"inclusive";"3530"
"2014";"P";"fulltime";"total";"exclusive";"3527"
"2014";"P";"fulltime";"male";"inclusive";"3729"
"2014";"P";"fulltime";"male";"exclusive";"3725"
"2014";"P";"fulltime";"female";"inclusive";"3238"
"2014";"P";"fulltime";"female";"exclusive";"3236"
"2014";"Q";"total";"total";"inclusive";"1973"
"2014";"Q";"total";"total";"exclusive";"1968"
"2014";"Q";"total";"male";"inclusive";"3066"
"2014";"Q";"total";"male";"exclusive";"3054"
"2014";"Q";"total";"female";"inclusive";"1768"
"2014";"Q";"total";"female";"exclusive";"1763"
"2014";"Q";"parttime";"total";"inclusive";"1553"
"2014";"Q";"parttime";"total";"exclusive";"1550"
"2014";"Q";"parttime";"male";"inclusive";"1839"
"2014";"Q";"parttime";"male";"exclusive";"1832"
"2014";"Q";"parttime";"female";"inclusive";"1525"
"2014";"Q";"parttime";"female";"exclusive";"1522"
"2014";"Q";"fulltime";"total";"inclusive";"3387"
"2014";"Q";"fulltime";"total";"exclusive";"3375"
"2014";"Q";"fulltime";"male";"inclusive";"4001"
"2014";"Q";"fulltime";"male";"exclusive";"3984"
"2014";"Q";"fulltime";"female";"inclusive";"2991"
"2014";"Q";"fulltime";"female";"exclusive";"2982"
"2014";"R";"total";"total";"inclusive";"1652"
"2014";"R";"total";"total";"exclusive";"1645"
"2014";"R";"total";"male";"inclusive";"2050"
"2014";"R";"total";"male";"exclusive";"2040"
"2014";"R";"total";"female";"inclusive";"1287"
"2014";"R";"total";"female";"exclusive";"1282"
"2014";"R";"parttime";"total";"inclusive";"971"
"2014";"R";"parttime";"total";"exclusive";"964"
"2014";"R";"parttime";"male";"inclusive";"939"
"2014";"R";"parttime";"male";"exclusive";"930"
"2014";"R";"parttime";"female";"inclusive";"991"
"2014";"R";"parttime";"female";"exclusive";"986"
"2014";"R";"fulltime";"total";"inclusive";"3339"
"2014";"R";"fulltime";"total";"exclusive";"3329"
"2014";"R";"fulltime";"male";"inclusive";"3609"
"2014";"R";"fulltime";"male";"exclusive";"3598"
"2014";"R";"fulltime";"female";"inclusive";"2733"
"2014";"R";"fulltime";"female";"exclusive";"2726"
"2014";"S";"total";"total";"inclusive";"1984"
"2014";"S";"total";"total";"exclusive";"1974"
"2014";"S";"total";"male";"inclusive";"2668"
"2014";"S";"total";"male";"exclusive";"2650"
"2014";"S";"total";"female";"inclusive";"1624"
"2014";"S";"total";"female";"exclusive";"1619"
"2014";"S";"parttime";"total";"inclusive";"1330"
"2014";"S";"parttime";"total";"exclusive";"1323"
"2014";"S";"parttime";"male";"inclusive";"1442"
"2014";"S";"parttime";"male";"exclusive";"1430"
"2014";"S";"parttime";"female";"inclusive";"1296"
"2014";"S";"parttime";"female";"exclusive";"1291"
"2014";"S";"fulltime";"total";"inclusive";"3175"
"2014";"S";"fulltime";"total";"exclusive";"3159"
"2014";"S";"fulltime";"male";"inclusive";"3591"
"2014";"S";"fulltime";"male";"exclusive";"3569"
"2014";"S";"fulltime";"female";"inclusive";"2657"
"2014";"S";"fulltime";"female";"exclusive";"2650"